[
    {
        "ISBN": "978-3-8369-6058-8",
        "Sortierung": "Torseter, Øyvind",
        "Titel": "Ein Mann für alle Fälle",
        "Untertitel": "Thriller",
        "Verlag": "Gerstenberg Verlag",
        "Inhaltsbeschreibung": "Hans hat eine Stelle als Mann für alle Fälle angetreten, und das nicht bei irgendwem. Er erledigt alle anfallenden Arbeiten für den Präsidenten. Wenn Hans seine Arbeit gut macht, darf er vielleicht auf den Atomkoffer aufpassen! Aber da taucht plötzlich ein Problem auf. In Gestalt eines Doppelgängers.Nichts weniger als ein Gesamtkunstwerk: ein internationaler Politthriller, eine genial aufs Papier gebrachte Graphic Novel voller Witz, Lakonie und Satire ... und noch so einiges mehr! ",
        "Preis": "18,00",
        "Erscheinungsjahr": "2020",
        "Altersempfehlung": "ab 10 Jahren",
        "AutorIn": "Øyvind Torseter",
        "IllustratorIn": "",
        "ZeichnerIn": "",
        "PhotographIn": "",
        "ÜbersetzerIn": "Maike Dörries",
        "HerausgeberIn": "",
        "MitarbeiterIn": "",
        "Kategorien": "",
        "Themen": "Graphic Novel, Abenteuer/Action, Krimi/Thriller",
        "Reihe": "",
        "Band": "",
        "Einband": "gebunden",
        "Seitenzahl": "136",
        "Abmessungen": "17,9cm x 22,6cm",
        "Antolin": "5. Klasse"
    },
    {
        "ISBN": "978-3-95470-238-1",
        "Sortierung": "Aakeson, Kim Fupz",
        "Titel": "Hugo & Hassan",
        "Untertitel": "",
        "Verlag": "Klett Kinderbuch Verlag",
        "Inhaltsbeschreibung": "Witzig, wild und unwiderstehlich: Jungsleben von heute ",
        "Preis": "15,00",
        "Erscheinungsjahr": "2020",
        "Altersempfehlung": "ab 8 Jahren",
        "AutorIn": "Kim Fupz Aakeson",
        "IllustratorIn": "Rasmus Bregnhoi",
        "ZeichnerIn": "",
        "PhotographIn": "",
        "ÜbersetzerIn": "Franziska Gehm",
        "HerausgeberIn": "",
        "MitarbeiterIn": "",
        "Kategorien": "",
        "Themen": "Freundschaft, Graphic Novel",
        "Reihe": "Hugo & Hassan",
        "Band": "1",
        "Einband": "gebunden",
        "Seitenzahl": "104",
        "Abmessungen": "17,6cm x 1,8cm",
        "Antolin": "4. Klasse"
    },
    {
        "ISBN": "978-3-96451-017-4",
        "Sortierung": "Perreault, Guillaume",
        "Titel": "Der Weltraumpostbote",
        "Untertitel": "",
        "Verlag": "Rotopol",
        "Inhaltsbeschreibung": "Bob ist Postbote mit Leib und Seele! Mit seinem Raumschiff bringt er den Leuten ihre Briefe und Pakete in sämtliche Winkel des Weltalls. Na ja, zumindest in die Winkel des Weltalls, die er kennt. Denn Bob mag es gemütlich und er schätzt seinen wohlgeordneten Tagesablauf. An diesem Tag allerdings ist im Postamt nicht alles so, wie es eigentlich sein sollte...In dem farbenfroh erzählten Comic begegnen wir neben außergewöhnlichen Orten mit beeindruckend fremden Landschaften auch einer ganzen Reihe von Außerirdischen. Darunter einem riesigen blauen Bauern, einer kleinen kakteenartigen Kreatur und einem Rudel kosmischer Hunde, die es kaum erwarten können, einen leckeren Bissen von einem Briefträger zu erwischen. Bobs Abenteuer auf seinen fünf Postrouten sind so aufregend wie lustig und machen diesen preisgekrönten kanadischen Comic zu einem Lesevergnügen für Groß und Klein. ",
        "Preis": "18,00",
        "Erscheinungsjahr": "2020",
        "Altersempfehlung": "ab 6 Jahren",
        "AutorIn": "Guillaume Perreault",
        "IllustratorIn": "Guillaume Perreault",
        "ZeichnerIn": "",
        "PhotographIn": "",
        "ÜbersetzerIn": "",
        "HerausgeberIn": "",
        "MitarbeiterIn": "",
        "Kategorien": "",
        "Themen": "Abenteuer, Außerirdische Wesen / Aliens / Weltraumwesen, Comics, Funnies/Humor, Raumschiff",
        "Reihe": "",
        "Band": "",
        "Einband": "gebunden",
        "Seitenzahl": "144",
        "Abmessungen": "17,2cm x 23,5cm",
        "Antolin": "3. Klasse"
    }
]