[
    {
        "ISBN": "978-3-96632-026-9",
        "Sortierung": "Schulz-Reiss, Christine",
        "Titel": "Fernando Magellan einmal um die ganze Welt, 1 Audio-CD",
        "Untertitel": "Vollständige Lesung, gelesen von Gerhard Garbers, 1 CD, ca. 52 Min., Lesung. 52 Min.",
        "Verlag": "Hörcompany",
        "Inhaltsbeschreibung": "Über die Meere zu den Gewürzen ",
        "Preis": "12,95",
        "Erscheinungsjahr": "2020",
        "Altersempfehlung": "ab 9 Jahren",
        "AutorIn": "Christine Schulz-Reiss",
        "IllustratorIn": "",
        "ZeichnerIn": "",
        "PhotographIn": "",
        "ÜbersetzerIn": "",
        "HerausgeberIn": "",
        "MitarbeiterIn": "",
        "Kategorien": "Hörbuch",
        "Themen": "Entdecker, Gefahr, Lesung für Kinder/Jugendliche, Indien, Portugal, Reise, Seefahrt",
        "Dauer": "52",
        "KomponistIn": "",
        "RegisseurIn": "",
        "ProduzentIn": "",
        "Reihe": "Kinder entdecken berühmte Leute",
        "Band": "",
        "ErzählerIn": "Gerhard Garbers"
    },
    {
        "ISBN": "978-3-8337-4198-2",
        "Sortierung": "Osterwalder, Markus",
        "Titel": "Mit Bobo Siebenschläfer durch das Jahr, 2 Audio-CD",
        "Untertitel": "CD Standard Audio Format, Lesung. 160 Min.",
        "Verlag": "Jumbo Neue Medien",
        "Inhaltsbeschreibung": "Frühling, Sommer, Herbst und WinterBei Bobo Siebenschläfer ist viel los. Es warten aufregende Tage im Kindergarten, der Abschied von den Eltern, aber auch der Beginn neuer Freundschaften. Bald schon werden die Tage wärmer, die Blumen blühen und die Sträucher sind voll mit leckeren Beeren. Bobo zeltet am See und geht in den Bergen wandern. Und wenn die Tage wieder kürzer werden, weiß Bobo, was gegen Langeweile hilft. Er bastelt lustige Tiere aus Kastanien und verkleidet sich als Prinzessin. Plötzlich steht schon Weihnachten vor der Tür und mitBobos Adventskalender vergehen die letzten Tage wie im Flug. Abgerundet werden die kurzen Alltagsgeschichten mit fröhlichen Liedern, die zum Tanzen und Singen anregen. ",
        "Preis": "15,00",
        "Erscheinungsjahr": "2020",
        "Altersempfehlung": "ab 2 Jahren",
        "AutorIn": "Markus Osterwalder",
        "IllustratorIn": "",
        "ZeichnerIn": "",
        "PhotographIn": "",
        "ÜbersetzerIn": "",
        "HerausgeberIn": "",
        "MitarbeiterIn": "",
        "Kategorien": "Hörbuch",
        "Themen": "Freundschaft, Lesung für Kinder/Jugendliche, Jahreszeiten, Kinderlieder, Siebenschläfer, Spracherwerb, Tiergeschichten",
        "Dauer": "160",
        "KomponistIn": "",
        "RegisseurIn": "",
        "ProduzentIn": "",
        "Reihe": "Bobo Siebenschläfer",
        "Band": "",
        "ErzählerIn": "Katrin Gerken"
    },
    {
        "ISBN": "978-3-8337-4214-9",
        "Sortierung": "Schmachtl, Andreas H.",
        "Titel": "Tilda Apfelkern. Weihnachtszeit im Winterwald, Audio-CD",
        "Untertitel": "24 Adventskalender-Geschichten, Lesung. CD Standard Audio Format. 50 Min.",
        "Verlag": "Jumbo Neue Medien",
        "Inhaltsbeschreibung": "Auf der Suche nach den geheimnisvollen FrostbuttenWeihnachten ohne Tante Emilys berühmtes Frostbuttenmus? Das will Tilda sich nicht vorstellen! Doch der Vorrat ist tatsächlich komplett leergeputzt und Frostbutten wachsen ausgerechnet im unheimlichen Düsterwald! Wild entschlossen macht sich die holunderblütenweiße Kirchenmaus auf in den winterlichenWald und trifft dabei nicht nur Wildmaus Sylvie und Siebenschläfer Septimus, sondern auch geheimnisvolle rote Wichtel, die auch hinter den kostbaren Frostbutten her sind. Zum Glück helfen sie Tilda bei der Suche und Weihnachten wird am Ende doch noch so, wie Tilda es sich wünscht. ",
        "Preis": "12,00",
        "Erscheinungsjahr": "2020",
        "Altersempfehlung": "ab 4 Jahren",
        "AutorIn": "Andreas H. Schmachtl",
        "IllustratorIn": "",
        "ZeichnerIn": "",
        "PhotographIn": "",
        "ÜbersetzerIn": "",
        "HerausgeberIn": "",
        "MitarbeiterIn": "",
        "Kategorien": "Hörbuch",
        "Themen": "Lesung für Kinder/Jugendliche, Weihnachten, Weihnachtsgeschichten / Weihnachtserzählungen, Weihnachtslied",
        "Dauer": "50",
        "KomponistIn": "",
        "RegisseurIn": "",
        "ProduzentIn": "",
        "Reihe": "Tilda Apfelkern",
        "Band": "",
        "ErzählerIn": "Stephan Schad"
    },
    {
        "ISBN": "978-3-8337-4234-7",
        "Sortierung": "Griffin, Gordon",
        "Titel": "Five Little Monkeys. English Nursery Rhymes and Children's Songs, Audio-CD",
        "Untertitel": "CD Standard Audio Format, Hörspiel, Musikdarbietung/Musical/Oper. 60 Min.",
        "Verlag": "Jumbo Neue Medien",
        "Inhaltsbeschreibung": "One, two, how do you do?Diese Auswahl an englischen Kinderreimen und -liedern bietet einen ersten spielerischen Zugang zur englischen Sprache. In fröhlichen Liedern und lustigen Versen können die Kleinen ihre Ohren an das neue Lautbild gewöhnen und sich ganz von alleine erste eng lische Wörter zu eigen machen. Jacqui McShee und Gordon Griffin wecken die kindliche Neugier auf alles Neue und Unbekannte.aus dem Inhalt:14 Kinderreime, z. B.:- Five little monkeys- The Muffin Man- Twinkle, twinkle, little star- Humpty Dumpty- This little piggy- One, two, three, four, five19 Kinderlieder, z. B.:- The cat and the fiddle- Mud, glorious mud- Mary had a little lamb- Six little ducks- Ring-a-ring-a-roses- Lavender s blue- Alice, the camel ",
        "Preis": "13,00",
        "Erscheinungsjahr": "2020",
        "Altersempfehlung": "ab 3 Jahren",
        "AutorIn": "Audio-CD Five Little Monkeys. English Nursery Rhymes and Children's Songs",
        "IllustratorIn": "",
        "ZeichnerIn": "",
        "PhotographIn": "",
        "ÜbersetzerIn": "",
        "HerausgeberIn": "",
        "MitarbeiterIn": "Gordon Griffin; Jacqui McShee",
        "Kategorien": "Hörbuch",
        "Themen": "Englisch, Hörspiel für Kinder/Jugendliche, Kinderlieder",
        "Dauer": "60",
        "KomponistIn": "",
        "RegisseurIn": "",
        "ProduzentIn": "",
        "Reihe": "",
        "Band": "",
        "ErzählerIn": ""
    },
    {
        "ISBN": "978-3-8337-4215-6",
        "Sortierung": "Schmachtl, Andreas H.",
        "Titel": "Snöfrid aus dem Wiesental. Die wahrlich rasante Jagd nach der Flussperle, Audio-CD",
        "Untertitel": "[3], Lesung. CD Standard Audio Format. 85 Min.",
        "Verlag": "Jumbo Neue Medien",
        "Inhaltsbeschreibung": "Ein Bächlein macht die BiegeWas für eine Ungeheuerlichkeit: Snöfrids Bächlein ist über Nacht verschwunden! Ohne Wasser kein Haferbrei ... und deshalb braucht Snöfrid auch nicht lange zu überlegen. Um diese Sache muss er sich kümmern! Was mit einer nassen Begegnung am Teich der kleinen Nymphe Flumina beginnt, wird auf der Jagd nach der geheimnisvollen Flussperle schnell zu einem handfesten Tauchboot-Abenteuer mit ungewissem Ausgang ... ",
        "Preis": "12,00",
        "Erscheinungsjahr": "2020",
        "Altersempfehlung": "ab 5 Jahren",
        "AutorIn": "Andreas H. Schmachtl; Bernd Stephan",
        "IllustratorIn": "",
        "ZeichnerIn": "",
        "PhotographIn": "",
        "ÜbersetzerIn": "",
        "HerausgeberIn": "",
        "MitarbeiterIn": "",
        "Kategorien": "Hörbuch",
        "Themen": "Abenteuer, Fantasy, Lesung für Kinder/Jugendliche, Kindergartenalter, Wiesental",
        "Dauer": "85",
        "KomponistIn": "",
        "RegisseurIn": "",
        "ProduzentIn": "",
        "Reihe": "Snöfrid aus dem Wiesental",
        "Band": "3",
        "ErzählerIn": ""
    },
    {
        "ISBN": "978-3-8337-4206-4",
        "Sortierung": "Boie, Kirsten",
        "Titel": "Zurück in Sommerby, 4 Audio-CD",
        "Untertitel": "[2], Lesung. CD Standard Audio Format. 360 Min.",
        "Verlag": "Jumbo Neue Medien",
        "Inhaltsbeschreibung": "Herbst in SommerbyMartha und ihre Brüder Mikkel und Mats sind in den Herbstferien endlich wieder bei Oma Inge in Sommerby. Doch auch der dubiose Immobilienmakler ist zurück und versucht, Oma das Haus mit gefälschten Urkunden abzukaufen. Mit ihren neuen Freund innen schafft Martha es rechtzeitig zu Omas Geburtstag, den Makler zu überführen und das Haus zu retten. Jetzt hat sie endlich wieder Zeit für ihren Schwarm Enes und kann die Ferien genießen. ",
        "Preis": "15,00",
        "Erscheinungsjahr": "2020",
        "Altersempfehlung": "ab 10 Jahren",
        "AutorIn": "Kirsten Boie",
        "IllustratorIn": "",
        "ZeichnerIn": "",
        "PhotographIn": "",
        "ÜbersetzerIn": "",
        "HerausgeberIn": "",
        "MitarbeiterIn": "",
        "Kategorien": "",
        "Themen": "",
        "Dauer": "360",
        "KomponistIn": "",
        "RegisseurIn": "",
        "ProduzentIn": "",
        "Reihe": "Sommerby",
        "Band": "1",
        "ErzählerIn": "Julia Nachtmann"
    },
    {
        "ISBN": "978-3-7456-0187-9",
        "Sortierung": "Preußler, Otfried",
        "Titel": "Das kleine Gespenst - Das Hörspiel, 2 Audio-CD",
        "Untertitel": "2 CDs, Hörspiel. CD Standard Audio Format. 150 Min.",
        "Verlag": "Silberfisch",
        "Inhaltsbeschreibung": "Hörspiel-Spuk mit Uhu Schuhu: das kleine Gespenst in großer Form!Jede Nacht Punkt zwölf erwacht das kleine Gespenst ... Und auf Burg Eulenstein beginnt ein Hörabenteuer untermalt von Schlüsselbundgerassel und Truhendeckelgeknarze! Frisch inszeniert, mit einem Reigen exzellenter Sprecher und eigens komponierter Musik, spukt der Kinderbuchliebling in einer kunterbunten Hörspielproduktion!Nacht für Nacht geistert das kleine Gespenst durch die Gemäuer seiner Burg oder besucht Freund Uhu Schuhu. Aber wie aufregend wäre es, die Welt einmal bei Tageslicht zu sehen! Und das gelingt ihm nach einigen verschlafenen Versuchen tatsächlich. Vom Sonnenlicht getroffen wird aus dem weißen Nachtgepenst ein schwarzes Taggespenst, das im Städtchen für jede Menge Chaos sorgt. ",
        "Preis": "13,00",
        "Erscheinungsjahr": "2021",
        "Altersempfehlung": "ab 5 Jahren",
        "AutorIn": "Otfried Preußler",
        "IllustratorIn": "",
        "ZeichnerIn": "",
        "PhotographIn": "",
        "ÜbersetzerIn": "",
        "HerausgeberIn": "",
        "MitarbeiterIn": "Gudrun Hartmann",
        "Kategorien": "",
        "Themen": "",
        "Dauer": "150",
        "KomponistIn": "",
        "RegisseurIn": "Robert Schoen",
        "ProduzentIn": "",
        "Reihe": "",
        "Band": "",
        "ErzählerIn": "Anna Thalbach; Christian Grashof; Carmen-Maja Antoni; diverse"
    },
    {
        "ISBN": "978-3-7456-0188-6",
        "Sortierung": "Preußler, Otfried",
        "Titel": "Der kleine Wassermann - Das Hörspiel, 2 Audio-CD",
        "Untertitel": "2 CDs, Hörspiel. CD Standard Audio Format. 150 Min.",
        "Verlag": "Silberfisch",
        "Inhaltsbeschreibung": "Blubb-blubb! Hör-Wasser-Spiele im MühlenweiherEs gluckert und gurgelt im Mühlenweiher - der kleine Wassermann taucht in einem tauwasserfrischen Hörspiel auf! Ein Ensemble herausragender Sprecher leiht dem kleinen Schlingel und seinen Weggefährten ein Potpourri an Stimmen. Umspielt wird die Neuinszenierung des Klassikers von einer ausgetüftelten musikalischen und akustischen Komposition. Ein sprudelndes Hörspiel-Vergnügen! Eines Tages bekommt die Wassermannfamilie Nachwuchs. Der kleine Wassermann mit grünen Haaren und Schwimmhäuten zwischen den Zehen gedeiht prächtig und geht bald auf Entdeckungsreise. Und zwar am liebsten ohne Begleitung! Er trifft Sonne und Regen, ersinnt lustige Streiche und findet sogar Menschenfreunde.  ",
        "Preis": "13,00",
        "Erscheinungsjahr": "2021",
        "Altersempfehlung": "ab 5 Jahren",
        "AutorIn": "Otfried Preußler",
        "IllustratorIn": "",
        "ZeichnerIn": "",
        "PhotographIn": "",
        "ÜbersetzerIn": "",
        "HerausgeberIn": "",
        "MitarbeiterIn": "Gudrun Hartmann",
        "Kategorien": "",
        "Themen": "",
        "Dauer": "150",
        "KomponistIn": "",
        "RegisseurIn": "Robert Schoen",
        "ProduzentIn": "",
        "Reihe": "",
        "Band": "",
        "ErzählerIn": "Frauke Poolman; Gottfried Breitfuß; Hermann Beyer; diverse"
    },
    {
        "ISBN": "978-3-7456-0186-2",
        "Sortierung": "Preußler, Otfried",
        "Titel": "Die kleine Hexe - Das Hörspiel, 2 Audio-CD",
        "Untertitel": "2 CDs, Hörspiel. CD Standard Audio Format. 150 Min.",
        "Verlag": "Silberfisch",
        "Inhaltsbeschreibung": "Hexa kadabra simsala sum! Die kleine Hexe geht um!Die kleine Hexe ist eine der beliebtesten Kinderbuchfiguren überhaupt - nun fliegt sie auf ihrem Hexenbesen durch ein neues Hörspielabenteuer: frech inszeniert in einer Bearbeitung von Gudrun Hartmann, mit Musik von Henrik Albrecht unter der Regie von Robert Schoen. Ausgesuchte Sprecher krächzen rabenstark und lassen ihre Stimmen auf dem Blocksberg tanzen!Mit 127 Jahren ist die kleine Hexe zu jung, um mit den großen Hexen in der Walpurgisnacht zu tanzen. Doch sie feiert einfach mit - und wird erwischt. Zur Strafe muss sie versprechen, eine gute Hexe zu werden. Aber was macht eine gute Hexe aus? Übers Jahr hinweg hext die kleine Hexe so einiges. Gutes und Verrücktes. Was der Hexenrat wohl dazu sagen wird? ",
        "Preis": "13,00",
        "Erscheinungsjahr": "2021",
        "Altersempfehlung": "ab 5 Jahren",
        "AutorIn": "Otfried Preußler",
        "IllustratorIn": "",
        "ZeichnerIn": "",
        "PhotographIn": "",
        "ÜbersetzerIn": "",
        "HerausgeberIn": "",
        "MitarbeiterIn": "Gudrun Hartmann",
        "Kategorien": "",
        "Themen": "",
        "Dauer": "150",
        "KomponistIn": "",
        "RegisseurIn": "Robert Schoen",
        "ProduzentIn": "",
        "Reihe": "",
        "Band": "",
        "ErzählerIn": "Svenja Liesau; Santiago Ziesmer; Friedhelm Ptok; diverse"
    },
    {
        "ISBN": "978-3-7456-0190-9",
        "Sortierung": "Preußler, Otfried",
        "Titel": "Die kleine Hexe, 1 Audio-CD",
        "Untertitel": "Ausflug mit Abraxas; Winterzauber mit Abraxas. CD Standard Audio Format. Ungekürzte Ausgabe. 75 Min.",
        "Verlag": "Silberfisch",
        "Inhaltsbeschreibung": "Suzanne von Borsody verzaubert die JüngstenMitten im Wald wohnt die kleine Hexe mit ihrem Raben Abraxas. Für ihre Hexenprüfung muss sie üben, üben, üben. Aber die Sprüche richtig aufzusagen ist so schwer - und dann bricht auch noch ihr Besen entzwei! Also unternimmt sie einen \"Ausflug mit Abraxas\", um einen neuen zu besorgen. Und sorgt für viel Trubel! In \"Winterzauber mit Abraxas\" wird bei Schnee und Eis munter weiter gehext. Die kleine Hexe hilft dem frierenden Maronimann und feiert mit den Tieren Fastnacht. ",
        "Preis": "10,00",
        "Erscheinungsjahr": "2020",
        "Altersempfehlung": "ab 3 Jahren",
        "AutorIn": "Otfried Preußler; Susanne Preußler-Bitsch",
        "IllustratorIn": "",
        "ZeichnerIn": "",
        "PhotographIn": "",
        "ÜbersetzerIn": "",
        "HerausgeberIn": "",
        "MitarbeiterIn": "",
        "Kategorien": "Hörbuch",
        "Themen": "Lesung für Kinder/Jugendliche, Hexe",
        "Dauer": "75",
        "KomponistIn": "",
        "RegisseurIn": "",
        "ProduzentIn": "",
        "Reihe": "",
        "Band": "",
        "ErzählerIn": "Suzanne von Borsody"
    },
    {
        "ISBN": "978-3-7456-0219-7",
        "Sortierung": "Sixtus, Albert",
        "Titel": "Winter in der Häschenschule und weitere Geschichten, 1 Audio-CD",
        "Untertitel": "Musik in der Häschenschule, Lampes Wochenende, Schnuckihas und Miezemau. CD Standard Audio Format. 30 Min.",
        "Verlag": "Silberfisch",
        "Inhaltsbeschreibung": "Zeitlos schöne LangohrgeschichtenWer gedacht hat, in der Häschenschule ginge es nur um Ostereier, wird nun eines Besseren belehrt. Es wird Winter in der Häschenschule und der Hasenlehrer läutet die Weihnachtsferien ein. In Musik in der Häschenschule bereitet Hasenfritz mit seiner Musik allen Tieren Freude. Ergänzt werden die beiden Erzählungen durch zwei weitere liebevolle Hasengeschichten: Familie Lampe unternimmt in Lampes Wochenende einen Ausflug ins Grüne und Schnuckihas und Miezemau schnuppern Stadtluft. ",
        "Preis": "10,00",
        "Erscheinungsjahr": "2020",
        "Altersempfehlung": "ab 3 Jahren",
        "AutorIn": "Albert Sixtus; Anne und Rudolf Mühlhaus; Herbert Kranz",
        "IllustratorIn": "",
        "ZeichnerIn": "",
        "PhotographIn": "",
        "ÜbersetzerIn": "",
        "HerausgeberIn": "",
        "MitarbeiterIn": "",
        "Kategorien": "Hörbuch",
        "Themen": "Lesung für Kinder/Jugendliche, Hasen, Tiergeschichten, Weihnachten, Winter",
        "Dauer": "30",
        "KomponistIn": "",
        "RegisseurIn": "",
        "ProduzentIn": "",
        "Reihe": "",
        "Band": "",
        "ErzählerIn": "Walter Kreye"
    },
    {
        "ISBN": "978-3-7456-0225-8",
        "Sortierung": "Bohlmann, Sabine",
        "Titel": "Eine Pudelmütze voller Wintergeschichten, 1 Audio-CD",
        "Untertitel": "1 CD, Lesung. CD Standard Audio Format. Gekürzte Ausgabe. 75 Min.",
        "Verlag": "Silberfisch",
        "Inhaltsbeschreibung": "Es schneit!Wann kommt er denn endlich, der Winter? Der kleine Siebenschläfer kann es kaum erwarten, schließlich hat er die kalte Jahreszeit bisher immer verschlafen. Aber dieses Jahr soll das anders werden: Mit seinen Freunden wartet er auf den ersten Schnee. Jetzt gibt's eine Schneeballschlacht! Und ein Iglu wird ganz flink gebaut. Mächtig Spaß machen auch das Baumstammrennen und die Schlitterpartie über den gefrorenen See. Diese Zeit wird der kleine Siebenschläfer nie vergessen! ",
        "Preis": "10,00",
        "Erscheinungsjahr": "2020",
        "Altersempfehlung": "ab 4 Jahren",
        "AutorIn": "Sabine Bohlmann",
        "IllustratorIn": "",
        "ZeichnerIn": "",
        "PhotographIn": "",
        "ÜbersetzerIn": "",
        "HerausgeberIn": "",
        "MitarbeiterIn": "",
        "Kategorien": "Hörbuch",
        "Themen": "Lesung für Kinder/Jugendliche, Rodeln, Schlitten, Schnee, Siebenschläfer, Weihnachten, Weihnachtsgeschichten / Weihnachtserzählungen, Winter",
        "Dauer": "75",
        "KomponistIn": "",
        "RegisseurIn": "",
        "ProduzentIn": "",
        "Reihe": "Der kleine Siebenschläfer",
        "Band": "",
        "ErzählerIn": "Sabine Bohlmann"
    },
    {
        "ISBN": "978-3-7456-0239-5",
        "Sortierung": "Muser, Martin",
        "Titel": "Kannawoniwasein - Manchmal fliegt einem alles um die Ohren - Das Hörspiel, Audio-CD",
        "Untertitel": "52 Min.",
        "Verlag": "Silberfisch",
        "Inhaltsbeschreibung": "Manchmal kriegt man einfach ein HörspielJola hat Finn eingeladen, die Sommerferien in Polen zu verbringen, bei ihren Großeltern auf dem Land. Mit einem selbstgebauten Floß geht es auf große Fahrt, zusammen mit dem Jungen Antek und seinem dreibeinigen Hund. Dann müssen Finn und Jola noch ganz nebenbei herausfinden, ob Jolas Onkel wirklich eine Leiche im Schuppen versteckt hat, und zwei großmäuligen Berliner Brüdern Manieren beibringen, was am Ende zu einer krachende Silvesterfeier führt - mitten im Sommer. ",
        "Preis": "10,00",
        "Erscheinungsjahr": "2020",
        "Altersempfehlung": "ab 8 Jahren",
        "AutorIn": "Martin Muser",
        "IllustratorIn": "",
        "ZeichnerIn": "",
        "PhotographIn": "",
        "ÜbersetzerIn": "",
        "HerausgeberIn": "",
        "MitarbeiterIn": "Judith Lorentz",
        "Kategorien": "Hörbuch",
        "Themen": "Ferien, Feuerwerk, Freundschaft, Hörspiel für Kinder/Jugendliche, Polen, Sommer, Walachei",
        "Dauer": "52",
        "KomponistIn": "",
        "RegisseurIn": "Judith Lorentz",
        "ProduzentIn": "",
        "Reihe": "Kannawoniwasein",
        "Band": "2",
        "ErzählerIn": "Diverse"
    },
    {
        "ISBN": "978-3-7456-0234-0",
        "Sortierung": "Auer, Margit",
        "Titel": "Die Schule der magischen Tiere - Eingeschneit! Das Hörspiel, 1 Audio-CD",
        "Untertitel": "1 CD, Hörspiel. CD Standard Audio Format. 75 Min.",
        "Verlag": "Silberfisch",
        "Inhaltsbeschreibung": "Das magische Winter-HörspielLeise rieselt der Schnee, Miss Cornfield und ihre Klasse backen Plätzchen - und plötzlich ist die Wintersteinschule komplett eingeschneit! Schnell ist klar: Lehrerin, Schüler und ihre Tiere stecken fest. Während Leander und Henrietta sich eng an ihre Kinder kuscheln, kann Pinguin Juri es kaum erwarten, sich in den Schnee zu stürzen. ",
        "Preis": "7,99",
        "Erscheinungsjahr": "2020",
        "Altersempfehlung": "ab 6 Jahren",
        "AutorIn": "Margit Auer",
        "IllustratorIn": "",
        "ZeichnerIn": "",
        "PhotographIn": "",
        "ÜbersetzerIn": "",
        "HerausgeberIn": "",
        "MitarbeiterIn": "",
        "Kategorien": "Hörbuch",
        "Themen": "Freundschaft, Hörspiel für Kinder/Jugendliche, Magie, Schnee, Schulgeschichte, Weihnachten, Winter",
        "Dauer": "75",
        "KomponistIn": "",
        "RegisseurIn": "",
        "ProduzentIn": "",
        "Reihe": "Die Schule der magischen Tiere",
        "Band": "",
        "ErzählerIn": ""
    },
    {
        "ISBN": "978-3-96177-079-3",
        "Sortierung": "Kaurin, Marianne",
        "Titel": "Irgendwo ist immer Süden, Audio-CD, MP3",
        "Untertitel": "260 Min.",
        "Verlag": "Woow Books",
        "Inhaltsbeschreibung": "Alle verreisen in den Sommerferien ins Ausland. Nur Ina bleibt zu Hause - dabei hätte sie gerne genauso spannende Urlaubspläne wie die anderen. Und plötzlich hört sie sich vor ihrer Klasse sagen, sie würde in den Süden fahren. Damit die Lüge nicht auffliegt, bleibt Ina in den Ferien von morgens bis abends in ihrem Zimmer. Doch dann entdeckt der Neue aus der Klasse sie am Fenster und macht ihr einen vollkommen verrückten Vorschlag ... ",
        "Preis": "17,00",
        "Erscheinungsjahr": "2020",
        "Altersempfehlung": "ab 11 Jahren",
        "AutorIn": "Marianne Kaurin",
        "IllustratorIn": "",
        "ZeichnerIn": "",
        "PhotographIn": "",
        "ÜbersetzerIn": "",
        "HerausgeberIn": "",
        "MitarbeiterIn": "",
        "Kategorien": "Hörbuch",
        "Themen": "Ferien, Freundschaft, Lesung für Kinder/Jugendliche, Mobbing, Schule, Teenager, Urlaub",
        "Dauer": "260",
        "KomponistIn": "",
        "RegisseurIn": "",
        "ProduzentIn": "",
        "Reihe": "",
        "Band": "",
        "ErzählerIn": "Mayke Dähn"
    }
]