[
    {
        "ISBN": "978-3-407-81284-1",
        "Sortierung": "Bierwirth, Marlene",
        "Titel": "Meine Medizin seid ihr!",
        "Untertitel": "Gemeinsam sind wir stärker als der Krebs",
        "Verlag": "Beltz",
        "Inhaltsbeschreibung": "Gemeinsam kann man alles schaffen",
        "Preis": "9,00",
        "Erscheinungsjahr": "2022",
        "Altersempfehlung": "ab 14 Jahren",
        "Reihe": "",
        "Band": "",
        "Gewicht": "291",
        "Abmessungen": "18,5x19,4",
        "Sprachen": "Deutsch",
        "Kategorien": "",
        "Themen": "Autobiografie, Hoffnung, Instagram, Krankheit, Leben, Lebensgeschichte, Lebensmut, Memoir, Mut, Schullektüre",
        "Einband": "kartoniert/broschiert",
        "Seitenzahl": "291",
        "Antolin": "",
        "AutorIn": "Marlene Bierwirth",
        "Vorlage": "",
        "IllustratorIn": "",
        "ZeichnerIn": "",
        "PhotographIn": "",
        "ÜbersetzerIn": "",
        "HerausgeberIn": "",
        "MitarbeiterIn": ""
    },
    {
        "ISBN": "978-3-446-27236-1",
        "Sortierung": "Rabinowich, Julya",
        "Titel": "Dazwischen: Wir",
        "Untertitel": "",
        "Verlag": "Hanser",
        "Inhaltsbeschreibung": "Nach \"Dazwischen: Ich\" erzählt Julya Rabinowich in \"Dazwischen: Wir\", wie Madina ihren Weg in ihrer neuen Heimat findet. Ein bewegender Roman und ein Aufruf, Hetze mutig entgegenzutretenMadina hat den Krieg und seine Schrecken, die gefährliche Flucht hinter sich gelassen. Endlich hat sie das Gefühl, angekommen zu sein, wohnt mit ihrer Familie bei ihrer besten Freundin Laura, trägt keine schlecht sitzenden Kleider aus der Spendenkiste mehr und gehört in der Schule ganz selbstverständlich dazu. Aber dann kippt die Stimmung. Rassistische Schmierereien tauchen auf, und jeden Donnerstag skandiert eine Gruppe auf dem Hauptplatz: \"Ausländer raus!\", erst wenige, dann immer mehr. Eine Zerreißprobe, nicht nur für Madina, sondern für alle, die in dem Ort leben. Doch Madina beschließt, nicht wegzuschauen - und sie findet Verbündete. Ein flammender Appell gegen Ausgrenzung und die Spaltung der Gesellschaft! ",
        "Preis": "17,00",
        "Erscheinungsjahr": "2022",
        "Altersempfehlung": "ab 14 Jahren",
        "Reihe": "",
        "Band": "",
        "Gewicht": "368",
        "Abmessungen": "14,2x21,6",
        "Sprachen": "Deutsch",
        "Kategorien": "",
        "Themen": "Akzeptanz, Asyl, Ausländer, Ausländerfeindlichkeit, Freundschaft, Integration, Krieg, Pegida, Rassismus, Respekt",
        "Einband": "kartoniert/broschiert",
        "Seitenzahl": "256",
        "Antolin": "",
        "AutorIn": "Julya Rabinowich",
        "Vorlage": "",
        "IllustratorIn": "",
        "ZeichnerIn": "",
        "PhotographIn": "",
        "ÜbersetzerIn": "",
        "HerausgeberIn": "",
        "MitarbeiterIn": ""
    },
    {
        "ISBN": "978-3-7512-0189-6",
        "Sortierung": "Villadsen, Lise",
        "Titel": "Sowas wie Sommer, sowas wie Glück",
        "Untertitel": "",
        "Verlag": "Oetinger",
        "Inhaltsbeschreibung": "Dieser Sommer könnte für Astrid der beste ihres Lebens werden. Mit ihrem Freund Jonas will sie auf Interrail-Reise gehen und die Welt entdecken. Und dann ist da noch Kristoffer, der Junge aus der Schule, der ihren Bauch kribbeln lässt und nichts lieber will, als sie glücklich zu machen. Alles könnte so perfekt sein, aber zu Hause wartet ihre ältere Schwester Cecilie. Sie hat eine Angststörung, unter der die ganze Familie leidet. Kann Astrid für sie da sein und trotzdem ihr eigenes Leben leben? ",
        "Preis": "18,00",
        "Erscheinungsjahr": "2022",
        "Altersempfehlung": "ab 14 Jahren",
        "Reihe": "",
        "Band": "",
        "Gewicht": "",
        "Abmessungen": "13,4",
        "Sprachen": "Deutsch",
        "Kategorien": "",
        "Themen": "Dänemark, Erste Liebe, Familie, Identität, Liebe, Psychische Gesundheit, Schulabschluss, Sommer, Young Adult",
        "Einband": "gebunden",
        "Seitenzahl": "256",
        "Antolin": "",
        "AutorIn": "Lise Villadsen",
        "Vorlage": "",
        "IllustratorIn": "",
        "ZeichnerIn": "",
        "PhotographIn": "",
        "ÜbersetzerIn": "Meike Blatzheim",
        "HerausgeberIn": "",
        "MitarbeiterIn": ""
    },
    {
        "ISBN": "978-3-7432-1219-0",
        "Sortierung": "Oseman, Alice",
        "Titel": "Loveless",
        "Untertitel": "Das Must-read des Jahres über die Vielfalt der Liebe - ausgezeichnet mit dem YA Book Prize 2021",
        "Verlag": "Loewe Verlag",
        "Inhaltsbeschreibung": "Warten auf die große Liebe Georgia ist 18 und noch immer ungeküsst. Sie war noch nie verliebt, noch nicht einmal ein bisschen verknallt. Dabei schwärmt sie für alles, was so richtig schön romantisch ist: Hochzeiten, Liebesgeschichten und Happily-Ever-Afters. Der Richtige wird schon noch kommen, oder? Oder die Richtige? Irgendwann ... Aber was, wenn nicht?  Lies diesen einzigartigen Roman jetzt in der grandiosen und einfühlsamen deutschen Übersetzung. Das sagt die Presse in Großbritannien: \"Ein fröhliches, entwaffnend ehrliches Buch, das direkt aus dem Kopf eines jungen Mädchens zu entspringen scheint\" - Independent \"Loveless ist eine Ode an Freundschaft und platonische Seelenverwandte; dieser herzerwärmende Roman gewann verständlicherweise den YA Book Prize 2021' - Irish Times \"Eine wundervolle Geschichte über Selbstfindung\" - The BooksellerAusgezeichnet mit dem Bookseller's YA Bookprice - Von der Autorin von Heartstopper Loveless wird dich direkt im Herzen treffen: emotional, einfühlsam und ehrlich. Dieser Roman für Jugendliche ab 14 Jahren erzählt von der Magie von Freundschaften, Beziehungen und der Suche nach der Liebe. Alice Oseman zeigt in ihrer ergreifenden Geschichte, dass es mehr gibt als nur die eine Art, zu lieben und glücklich zu werden. Eine Geschichte trifft das Lebensgefühl einer jungen Generation Mit ihrem feinen Gespür für die Gefühle junger Menschen auf ihrer Suche nach Identität und Selbstakzeptanz begeistert Alice Oseman eine ganze Generation, für die LGBTQIA+ und eine diverse Zukunft selbstverständlich ist. Weitere Titel von Alice Oseman bei Loewe: Comic-Buchreihe Heartstopper bei Loewe Graphix: Heartstopper Volume 1 (deutsche Hardcover-Ausgabe) - erschienen im Januar 2022 Heartstopper Volume 2 (deutsche Hardcover-Ausgabe) - erscheint im Juni 2022 Heartstopper Volume 3 (deutsche Hardcover-Ausgabe) - erscheint im Oktober 2022 Heartstopper Volume 4 (deutsche Hardcover-Ausgabe) - erscheint im Frühjahr 2023 Jugendbuchromane: Radio Silence - erscheint im Juli 2022 I was Born for This - erscheint im Herbst 2023 ",
        "Preis": "14,95",
        "Erscheinungsjahr": "2022",
        "Altersempfehlung": "ab 14 Jahren",
        "Reihe": "",
        "Band": "",
        "Gewicht": "575",
        "Abmessungen": "13,5x3,5",
        "Sprachen": "Deutsch",
        "Kategorien": "",
        "Themen": "",
        "Einband": "kartoniert/broschiert",
        "Seitenzahl": "480",
        "Antolin": "",
        "AutorIn": "Alice Oseman",
        "Vorlage": "",
        "IllustratorIn": "",
        "ZeichnerIn": "",
        "PhotographIn": "",
        "ÜbersetzerIn": "Vanessa Walder",
        "HerausgeberIn": "",
        "MitarbeiterIn": "Loewe Jugendbücher"
    },
    {
        "ISBN": "978-3-03880-058-3",
        "Sortierung": "Silvera, Adam",
        "Titel": "More Happy Than Not",
        "Untertitel": "",
        "Verlag": "Arctis Verlag",
        "Inhaltsbeschreibung": "Das bewegende Debüt des SPIEGEL-Bestsellerautors jetzt auch auf DeutschNicht umsonst vom TIME Magazine unter die 100 besten Jugendbücher aller Zeiten gewählt: Adam Silveras 'More Happy Than Not' ist eine Gefühlsachterbahn durch die bittere wie schöne Realität. In Aarons Leben gibt es vieles, das er lieber für immer vergessen würde. Doch erst als sein bester Freund Thomas Aarons Gefühle für ihn zurückweist beschließt er, sich mit Hilfe einer neuartigen Gehirnmanipulation seine Erinnerungen an alles, was war, und alles, was er ist, löschen zu lassen. Auf schmerzlichste Weise muss er lernen, dass das Herz sich erinnert, auch wenn der Verstand längst vergessen hat ... ",
        "Preis": "18,00",
        "Erscheinungsjahr": "2022",
        "Altersempfehlung": "ab 14 Jahren",
        "Reihe": "",
        "Band": "",
        "Gewicht": "",
        "Abmessungen": "13,8",
        "Sprachen": "Deutsch",
        "Kategorien": "",
        "Themen": "Erinnerung, Freundschaft, Homosexualität, Identität, Liebe",
        "Einband": "gebunden",
        "Seitenzahl": "368",
        "Antolin": "",
        "AutorIn": "Adam Silvera; Lisa Kögeböhn",
        "Vorlage": "",
        "IllustratorIn": "",
        "ZeichnerIn": "",
        "PhotographIn": "",
        "ÜbersetzerIn": "",
        "HerausgeberIn": "",
        "MitarbeiterIn": ""
    },
    {
        "ISBN": "978-3-522-20280-0",
        "Sortierung": "Morosinotto, Davide",
        "Titel": "Shi Yu",
        "Untertitel": "Die Unbezwingbare | Ein Piraten-Abenteuerroman",
        "Verlag": "Thienemann in der Thienemann-Esslinger Verlag GmbH",
        "Inhaltsbeschreibung": "Meisterhaft erzählter Martial-Arts-Roman über den Aufstieg einer jungen Frau vom Waisenkind zur Befehlshaberin der größten Flotte Chinas. Für Jugendliche ab 13 Jahren.Fliegende Klinge wird sie genannt. Schwerelos fliegt sie durch die Luft und gleitet über das Wasser. Shi Yu ist eine Meisterin der Kampfkunst. Ohne den Wushu der Luft und des Wassers hätte sie nicht überlebt, als sie von Piraten entführt wurde. Noch ahnt sie nicht, dass sie die größte Piratin der chinesischen Meere werden soll und dass es nur einen Mann gibt, der es an Geschicklichkeit mit ihr aufnehmen kann: der gefährliche Eunuchenfürst Cao Feng. ",
        "Preis": "20,00",
        "Erscheinungsjahr": "2022",
        "Altersempfehlung": "ab 13 Jahren",
        "Reihe": "",
        "Band": "",
        "Gewicht": "759",
        "Abmessungen": "14,6x22,2",
        "Sprachen": "Deutsch",
        "Kategorien": "",
        "Themen": "Freundschaft, Mädchen",
        "Einband": "gebunden",
        "Seitenzahl": "512",
        "Antolin": "",
        "AutorIn": "Davide Morosinotto",
        "Vorlage": "",
        "IllustratorIn": "Rébecca Dautremer; Timo Kümmel",
        "ZeichnerIn": "",
        "PhotographIn": "",
        "ÜbersetzerIn": "Cornelia Panzacchi",
        "HerausgeberIn": "",
        "MitarbeiterIn": ""
    },
    {
        "ISBN": "978-3-407-81283-4",
        "Sortierung": "Drvenkar, Zoran",
        "Titel": "Licht und Schatten",
        "Untertitel": "Das Erwachen",
        "Verlag": "Beltz",
        "Inhaltsbeschreibung": "Ein mitreißendes Fantasy-Epos - mystisch und magisch!",
        "Preis": "13,00",
        "Erscheinungsjahr": "2022",
        "Altersempfehlung": "ab 14 Jahren",
        "Reihe": "",
        "Band": "",
        "Gewicht": "557",
        "Abmessungen": "12,4x18,6",
        "Sprachen": "Deutsch",
        "Kategorien": "",
        "Themen": "Epos, Fantasy, Heldin, Natur, Schicksal",
        "Einband": "kartoniert/broschiert",
        "Seitenzahl": "579",
        "Antolin": "",
        "AutorIn": "Zoran Drvenkar",
        "Vorlage": "",
        "IllustratorIn": "",
        "ZeichnerIn": "",
        "PhotographIn": "",
        "ÜbersetzerIn": "",
        "HerausgeberIn": "",
        "MitarbeiterIn": ""
    },
    {
        "ISBN": "978-3-95728-538-6",
        "Sortierung": "Petit, Xavier-Laurent",
        "Titel": "Der Sohn des Ursars",
        "Untertitel": "",
        "Verlag": "Knesebeck",
        "Inhaltsbeschreibung": "Ciprian ist der Sohn eine \"Ursars\", eines Bärenbändigers. Die Roma-Familie fährt mit ihrem Bären durch Osteuropa und bestreitet dort mit Vorführungen ihren Lebensunterhalt. Von der Bevölkerung werden sie meist vertrieben und von der Polizei verfolgt. Als dann eines Tages ihr Auto kaputtgeht, wird der Familie von zwei windigen Männern angeboten, sie für viel Geld nach Paris zu bringen. Dort soll es Arbeit und ein besseres Leben geben. Kaum im Pariser Slum angekommen, muss die Familie die Schulden für die Schleuser zurückzahlen, und so sucht sich jeder eine neue Arbeit: Daddu, der Bärenbändiger, wird Schrotthändler, Ma und Vera arbeiten als professionelle Bettler, Dimetriu, der große Bruder, wird \"Ausleiher\" von fremden Geldbeuteln und Ciprian sein Lehrling. Bis zu dem Tag, als Ciprian im Park Schachspieler entdeckt und in den Bann dieses faszinierenden Spiels gezogen wird. Zwei der Schachspieler erkennen das große Talent, das in Ciprian schlummert und sein Leben nimmt eine unerwartete Wendung ...Ein spannender Abenteuer-Roman über eine Roma-Familie, die um das tägliche Überleben kämpfen muss, über Fremdenfeindlichkeit, Schleuserbanden und die Vorurteile der Gesellschaft.                  ",
        "Preis": "15,00",
        "Erscheinungsjahr": "2022",
        "Altersempfehlung": "ab 12 Jahren",
        "Reihe": "",
        "Band": "",
        "Gewicht": "",
        "Abmessungen": "13,5",
        "Sprachen": "Deutsch",
        "Kategorien": "",
        "Themen": "Abenteuer, Ausgrenzung, Einzelgänger, Exil, Französischunterricht, Identität, Integration, Roma, Rumänien, Schach",
        "Einband": "gebunden",
        "Seitenzahl": "240",
        "Antolin": "",
        "AutorIn": "Xavier-Laurent Petit",
        "Vorlage": "",
        "IllustratorIn": "",
        "ZeichnerIn": "",
        "PhotographIn": "",
        "ÜbersetzerIn": "Désirée Schneider",
        "HerausgeberIn": "",
        "MitarbeiterIn": ""
    },
    {
        "ISBN": "978-3-446-27144-9",
        "Sortierung": "Kermani, Navid",
        "Titel": "Jeder soll von da, wo er ist, einen Schritt näher kommen",
        "Untertitel": "Fragen nach Gott - Spiegel Bestsellerliste Platz 1",
        "Verlag": "Hanser",
        "Inhaltsbeschreibung": "Bestsellerautor und Friedenspreisträger Navid Kermani über Religion und den Sinn des Lebens - die Essenz seines Denkens und ein Aufruf zum Miteinander\"Als er im Krankenhaus lag, sollte ich Opa versprechen, dich den Islam zu lehren, wenn er nicht mehr da ist, unseren Islam, den Islam, mit dem ich aufgewachsen bin.\" So beginnt ein Vater Abend für Abend seiner Tochter zu erzählen - nicht nur von seiner eigenen Religion, sondern von dem, was alle Gläubigen eint, von Gott und dem Tod, von der Liebe und der Unendlichkeit um uns herum. Dieses sehr persönliche Buch ist nicht nur Verzauberung und literarisches Meisterstück, sondern ein wahrer Erkenntnisgewinn, gerade weil Navid Kermani auch ins Dunkle zu schreiben wagt und damit seiner, unserer Ratlosigkeit einen Ausdruck gibt. Und weil seine Sprache, seine Offenheit, sein Wissen aus zwei Kulturen einzigartig sind, so hell und so tief. ",
        "Preis": "22,00",
        "Erscheinungsjahr": "2022",
        "Altersempfehlung": "ab 14 Jahren",
        "Reihe": "",
        "Band": "",
        "Gewicht": "407",
        "Abmessungen": "15x21,8",
        "Sprachen": "Deutsch",
        "Kategorien": "",
        "Themen": "Buddhismus, Christentum, Extremismus, Familie, Geschenkbuch für Kinder/Jugendliche, Gott, Hinduismus, Islam, Islamismus, Judentum",
        "Einband": "gebunden",
        "Seitenzahl": "240",
        "Antolin": "",
        "AutorIn": "Navid Kermani",
        "Vorlage": "",
        "IllustratorIn": "",
        "ZeichnerIn": "",
        "PhotographIn": "",
        "ÜbersetzerIn": "",
        "HerausgeberIn": "",
        "MitarbeiterIn": ""
    },
    {
        "ISBN": "978-3-446-27237-8",
        "Sortierung": "Norton, Preston",
        "Titel": "Kurz mal mit dem Universum plaudern",
        "Untertitel": "",
        "Verlag": "Hanser",
        "Inhaltsbeschreibung": "Manchmal ist das Leben echt nervig, aber das ist es wert - Preston Norton über zwei ungleiche Freunde mit einer ungewöhnlichen Mission. Für Fans von John Green und David LevithanWie eine total bekloppte, aber irgendwie bedeutungsvolle Liste Cliff Hubbards Leben veränderte: Cliff - von allen nur \"der Neandertaler\" genannt - hasst niemanden mehr als den widerlich coolen Aaron. Entsprechend irritiert ist er, als ausgerechnet Aaron ihm von einer Nahtoderfahrung erzählt: Darin hat Gott ihm eine To-do-Liste aufgetragen, die dafür sorgen soll, die Schule zu einem besseren Ort zu machen. Und helfen soll er, der Neandertaler! Zu seiner eigenen Überraschung willigt Cliff ein. Die Aufgaben schweißen Aaron und ihn zusammen, und Cliff muss schließlich feststellen, dass die Liste weit mehr mit ihm zu tun hat, als er sich hätte träumen lassen. Ein Sprachfeuerwerk, so lustig und berührend, dass man es nicht mehr weglegen möchte. ",
        "Preis": "18,00",
        "Erscheinungsjahr": "2022",
        "Altersempfehlung": "ab 14 Jahren",
        "Reihe": "",
        "Band": "",
        "Gewicht": "616",
        "Abmessungen": "15,2x21,8",
        "Sprachen": "Deutsch",
        "Kategorien": "",
        "Themen": "Eltern, Familie, Filme, Football, Freundschaft, Gott, Liebe, Liste, Neandertaler, Popkultur",
        "Einband": "gebunden",
        "Seitenzahl": "448",
        "Antolin": "",
        "AutorIn": "Preston Norton",
        "Vorlage": "",
        "IllustratorIn": "",
        "ZeichnerIn": "",
        "PhotographIn": "",
        "ÜbersetzerIn": "Jessika Komina; Sandra Knuffinke",
        "HerausgeberIn": "",
        "MitarbeiterIn": ""
    },
    {
        "ISBN": "978-3-8369-6105-9",
        "Sortierung": "Franz, Cornelia",
        "Titel": "Swing High",
        "Untertitel": "Tanzen gegen den Sturm",
        "Verlag": "Gerstenberg Verlag",
        "Inhaltsbeschreibung": "In ihrem spannenden Jugendroman erzählt Cornelia Franz vom Erwachsenwerden in der NS-Zeit und vom gefährlichen Leben der unangepassten \"Swingjugend\" in Hamburg. ",
        "Preis": "16,00",
        "Erscheinungsjahr": "2022",
        "Altersempfehlung": "ab 14 Jahren",
        "Reihe": "",
        "Band": "",
        "Gewicht": "399",
        "Abmessungen": "14,1x22",
        "Sprachen": "Englisch, Deutsch",
        "Kategorien": "",
        "Themen": "Faschismus, Hamburg, Hitlerjugend, Jazz, Jugendbewegung, Kommunisten, Tanz, Verrat, Widerstand",
        "Einband": "gebunden",
        "Seitenzahl": "224",
        "Antolin": "",
        "AutorIn": "Cornelia Franz",
        "Vorlage": "",
        "IllustratorIn": "",
        "ZeichnerIn": "",
        "PhotographIn": "",
        "ÜbersetzerIn": "",
        "HerausgeberIn": "",
        "MitarbeiterIn": ""
    },
    {
        "ISBN": "978-3-7348-5058-5",
        "Sortierung": "Ryan, Tom",
        "Titel": "Radio Silent - Melde dich, wenn du das hörst",
        "Untertitel": "",
        "Verlag": "Magellan",
        "Inhaltsbeschreibung": "Ich bin die Sucherin, und das ist Radio Silent. Hört zu. Helft mit.Dee weiß, wie es sich anfühlt, wenn jemand plötzlich verschwindet. Sie war erst sieben, als ihre beste Freundin Sibby vor ihren Augen entführt wurde. Deshalb hat sie es sich zur Aufgabe gemacht, Vermisstenfälle zu lösen. Nachts, wenn andere schlafen, nimmt sie heimlich und anonym einen Podcast auf. Radio Silent sammelt Hinweise aus der Bevölkerung und versucht so, vermisste Menschen aufzuspüren. Doch dann verschwindet wieder ein kleines Mädchen in der Nachbarschaft, und schnell wird klar, dass es eine Verbindung gibt zu Sibbys Entführung vor zehn Jahren. Dee will mit der Sache erst nichts zu tun haben, aber bald muss sie sich entscheiden: Wird sie sich der Vergangenheit stellen, selbst wenn sie sich dafür in Gefahr begibt?Ein packender Jugendbuchthriller, der atmosphärisch das Trendthema \"True-Crime-Podcasts\" aufgreift. ",
        "Preis": "18,00",
        "Erscheinungsjahr": "2022",
        "Altersempfehlung": "ab 13 Jahren",
        "Reihe": "",
        "Band": "",
        "Gewicht": "590",
        "Abmessungen": "14,6x22",
        "Sprachen": "Deutsch",
        "Kategorien": "",
        "Themen": "Entführung, Kleinstadt",
        "Einband": "gebunden",
        "Seitenzahl": "368",
        "Antolin": "",
        "AutorIn": "Tom Ryan",
        "Vorlage": "",
        "IllustratorIn": "",
        "ZeichnerIn": "",
        "PhotographIn": "",
        "ÜbersetzerIn": "Sandra Knuffinke; Jessika Komina",
        "HerausgeberIn": "",
        "MitarbeiterIn": ""
    },
    {
        "ISBN": "978-3-7512-0163-6",
        "Sortierung": "Boie, Kirsten",
        "Titel": "Heul doch nicht, du lebst ja noch",
        "Untertitel": "",
        "Verlag": "Oetinger",
        "Inhaltsbeschreibung": "Hamburg, Juni 1945: Die Stadt liegt in Trümmern. Mittendrin leben Traute, Hermann und Jakob. Der nennt sich allerdings Friedrich, denn niemand soll erfahren, dass er Jude ist. Als Hermann ihm dennoch auf die Spur kommt, will er nichts mehr mit Jakob zu tun haben. Schuld, Wahrheit, Angst und Wut sind die zentralen Themen dieses Buchs, dessen jugendliche Hauptfiguren durch die Schrecken des Krieges und der Naziherrschaft miteinander verbunden sind. Und für die es doch immer wieder Lichtblicke gibt. ",
        "Preis": "14,00",
        "Erscheinungsjahr": "2022",
        "Altersempfehlung": "ab 14 Jahren",
        "Reihe": "",
        "Band": "",
        "Gewicht": "320",
        "Abmessungen": "14x20,8",
        "Sprachen": "Deutsch",
        "Kategorien": "",
        "Themen": "Freiheit, Frieden, Hamburg, Hoffnung, Zeitgeschichte",
        "Einband": "gebunden",
        "Seitenzahl": "176",
        "Antolin": "ab 7. Klasse",
        "AutorIn": "Kirsten Boie",
        "Vorlage": "",
        "IllustratorIn": "",
        "ZeichnerIn": "",
        "PhotographIn": "",
        "ÜbersetzerIn": "",
        "HerausgeberIn": "",
        "MitarbeiterIn": ""
    },
    {
        "ISBN": "978-3-03880-059-0",
        "Sortierung": "Schumacher, Ashley",
        "Titel": "Amelia. Alle Seiten des Lebens",
        "Untertitel": "",
        "Verlag": "Arctis Verlag",
        "Inhaltsbeschreibung": "Wie ein leuchtender Liebesbrief an Bücher, Worte und das Lesen.Amelia ist Buchliebhaberin durch und durch. Es ist fast schicksalhaft, dass ihr Leben gleich zwei Mal ausgerechnet in einer Buchhandlung eine ungeahnte Wendung nimmt. Nach dem schrecklichen Verlust ihrer besten Freundin muss sie lernen, dass Mut manchmal bedeutet, weiterzublättern und alle Seiten des Lebens zu lesen - auch, wenn es weh tut. Als sie auf ihrer Suche nach Antworten schließlich Nolan begegnet, dem jungen und geheimnisvollen Autor ihrer Lieblingsbuchreihe, erkennt sie außerdem, dass es nie zu spät ist, ein neues Kapitel aufzuschlagen. ",
        "Preis": "19,00",
        "Erscheinungsjahr": "2022",
        "Altersempfehlung": "ab 14 Jahren",
        "Reihe": "",
        "Band": "",
        "Gewicht": "",
        "Abmessungen": "13,8",
        "Sprachen": "Deutsch",
        "Kategorien": "",
        "Themen": "Freundschaft, Idylle, Kleinstadt, Liebe, Poesie, Verlust",
        "Einband": "gebunden",
        "Seitenzahl": "304",
        "Antolin": "",
        "AutorIn": "Ashley Schumacher",
        "Vorlage": "",
        "IllustratorIn": "",
        "ZeichnerIn": "",
        "PhotographIn": "",
        "ÜbersetzerIn": "Barbara König",
        "HerausgeberIn": "",
        "MitarbeiterIn": ""
    },
    {
        "ISBN": "978-3-96976-023-9",
        "Sortierung": "Reichardt, Marisa",
        "Titel": "Immunity",
        "Untertitel": "Dein Leben, deine Entscheidung",
        "Verlag": "Moon Notes",
        "Inhaltsbeschreibung": "June ist 16 und hätte am liebsten ein ganz normales Teenager-Leben - zur Schule gehen, Freunde treffen, Fastfood essen. Aber bei ihren Hippie-Eltern gibt es nur regional angebaute Lebensmittel, selbst gemachtes Deo und auf einer Highschool war June auch noch nie. Damit kann sie leben. Doch Junes Eltern sind auch absolute Impfgegner. Und als sie sich mit den Masern infiziert, hat das verheerende Folgen. June sieht keine andere Möglichkeit mehr, als die Vormundschaft ihrer Eltern gerichtlich anzufechten, um sich endlich impfen lassen zu können. Eine dramatische Entscheidung! ",
        "Preis": "15,00",
        "Erscheinungsjahr": "2021",
        "Altersempfehlung": "ab 14 Jahren",
        "Reihe": "",
        "Band": "",
        "Gewicht": "418",
        "Abmessungen": "13,8x20,8",
        "Sprachen": "Deutsch",
        "Kategorien": "",
        "Themen": "Autonomie, Erste Liebe, Selbstbestimmung, Young Adult",
        "Einband": "kartoniert/broschiert",
        "Seitenzahl": "352",
        "Antolin": "",
        "AutorIn": "Marisa Reichardt",
        "Vorlage": "",
        "IllustratorIn": "",
        "ZeichnerIn": "",
        "PhotographIn": "",
        "ÜbersetzerIn": "Rita Gravert",
        "HerausgeberIn": "",
        "MitarbeiterIn": ""
    },
    {
        "ISBN": "978-3-96185-779-1",
        "Sortierung": "Reps, Oliver",
        "Titel": "Der Tag, der nie kommt",
        "Untertitel": "",
        "Verlag": "360 Grad",
        "Inhaltsbeschreibung": "»Der Tag, der nie kommt« ist die Geschichte des 17jährigen filmbegeisterten Elias, der über sein Leben und die Ereignisse nachdenkt, die ihn in die Situation gebracht haben, in der er sich befindet. Über den letzten Sommer, seine Freundin Polly, die wie ein Engel vom Himmel fiel, über seine sehr besondere Schwester Evi. Und über die Dämonen in seinem Kopf. Es ist eine Geschichte, die immer wieder auf eine falsche Fährte führt.Man will's nicht glauben, dass das ein Erstling ist, so ausgebufft-souverän erzählt Reps. Ziemlich leise, was sehr stark im Kontrast mit der die Leser überrumpelnden Story steht. Du spürst von Anfang an, daß da irgendwas »im Busche« ist. Im Verlauf seines Romans legt Reps Fallsticke aus. Jetzt passiert's, denkst du. Aber denkste, irgendwas kommt immer anders. Und wenn du glaubst: Nun kann nix mehr passieren - dann knallt es. Hammerhart.Ausgezeichnet als BESTES JUGENDBUCH DES JAHRES in den Niederlanden! \"Die Geschichte hält einen fest im Griff und führt uns bis zum atemberaubenden Ende, wonach man als Leser fassungslos bleibt.« (Jury Bestes Jugendbuch) ",
        "Preis": "16,00",
        "Erscheinungsjahr": "2022",
        "Altersempfehlung": "ab 14 Jahren",
        "Reihe": "",
        "Band": "",
        "Gewicht": "",
        "Abmessungen": "14",
        "Sprachen": "Deutsch",
        "Kategorien": "Sachbuch",
        "Themen": "Erste Liebe, Freundschaft, Krankheit, Liebe, Pubertät, Sterben, Tod",
        "Einband": "gebunden",
        "Seitenzahl": "190",
        "Antolin": "",
        "AutorIn": "Oliver Reps",
        "Vorlage": "",
        "IllustratorIn": "",
        "ZeichnerIn": "",
        "PhotographIn": "",
        "ÜbersetzerIn": "",
        "HerausgeberIn": "",
        "MitarbeiterIn": ""
    },
    {
        "ISBN": "978-3-7725-3113-2",
        "Sortierung": "Sassen, Erna",
        "Titel": "Ohne dich",
        "Untertitel": "",
        "Verlag": "Freies Geistesleben",
        "Inhaltsbeschreibung": "Ich bin Dein ZuhauseDer fünfzehnjährige Joshua - »Rembrandt« genannt - ist ein sensibler, aber auch wütender Junge mit einer besonderen Begabung fürs Zeichnen. Die Schule mag er nicht besonders und möchte sie lieber heute als morgen beenden. Damit ist er in seiner durch und durch bildungseifrigen Familie seit jeher ein Außenseiter. Halt und Freundschaft findet er bei Zivan, die mit ihrer Familie einst aus dem Irak geflohen ist. Doch dann kehrt diese in ihre Heimat zurück, und plötzlich ist Funkstille. E-Mails bleiben unbeantwortet, die Häkchen hinter den WhatsApp-Nachrichten grau. Da erfährt Joshua, dass Zivan mit ihrem Cousin verheiratet werden soll. Wird er sie jemals wiedersehen? Ein erschütterndes, ein eindringliches Buch. ",
        "Preis": "20,00",
        "Erscheinungsjahr": "2022",
        "Altersempfehlung": "ab 14 Jahren",
        "Reihe": "",
        "Band": "",
        "Gewicht": "443",
        "Abmessungen": "14,5x22",
        "Sprachen": "Deutsch",
        "Kategorien": "",
        "Themen": "Erste Liebe, Freundschaft, Irak, Kunst, Mobbing, Sehnsucht, Soziale Ungleichheit, Trauer, Zeichnen",
        "Einband": "gebunden",
        "Seitenzahl": "264",
        "Antolin": "",
        "AutorIn": "Erna Sassen",
        "Vorlage": "",
        "IllustratorIn": "Martijn van der Linden",
        "ZeichnerIn": "",
        "PhotographIn": "",
        "ÜbersetzerIn": "Rolf Erdorf",
        "HerausgeberIn": "",
        "MitarbeiterIn": ""
    },
    {
        "ISBN": "978-3-96177-098-4",
        "Sortierung": "Kelly, Lynne",
        "Titel": "Ein Lied für Blue",
        "Untertitel": "",
        "Verlag": "Woow Books",
        "Inhaltsbeschreibung": "Iris ist schon gehörlos zur Welt gekommen, doch das hat sie niemals von irgendetwas abgehalten. Trotzdem fühlt sie sich manchmal einsam, und ihr liebster Ort ist ihre Elektronikwerkstatt, in der sie an alten Radios herumschraubt. Eines Tages erfährt sie im Biologieunterricht von einem Wal namens Blue, der nicht mit anderen Walen kommunizieren kann, weil er in einer höheren Tonlage singt. Der Wal erweckt Iris' Mitgefühl, und sie will ihm unbedingt zeigen, dass er nicht allein ist. Also komponiert sie ein Lied, das Blue verstehen kann. Doch wie soll sie es dem Wal vorspielen, der Hunderte von Kilometern entfernt mitten im Ozean lebt? Zusammen mit ihrer Großmutter macht Iris sich auf zu einer abenteuerlichen Kreuzfahrt über den Pazifik.Mit Gebärdenspracheabbildungen im Anhang ",
        "Preis": "18,00",
        "Erscheinungsjahr": "2022",
        "Altersempfehlung": "ab 4 Jahren",
        "Reihe": "",
        "Band": "",
        "Gewicht": "592",
        "Abmessungen": "14,8x22",
        "Sprachen": "Deutsch",
        "Kategorien": "",
        "Themen": "Einsamkeit, Familie, Freundschaft, Gebärdensprache, Meer, Musik, Seereise, Tiere, Wal",
        "Einband": "gebunden",
        "Seitenzahl": "368",
        "Antolin": "",
        "AutorIn": "Lynne Kelly",
        "Vorlage": "",
        "IllustratorIn": "Saskia Diederichsen",
        "ZeichnerIn": "",
        "PhotographIn": "",
        "ÜbersetzerIn": "Meritxell Piel",
        "HerausgeberIn": "",
        "MitarbeiterIn": ""
    },
    {
        "ISBN": "978-3-03880-054-5",
        "Sortierung": "Sharif, Gulraiz",
        "Titel": "Ey hör mal!",
        "Untertitel": "",
        "Verlag": "Arctis Verlag",
        "Inhaltsbeschreibung": "Die Jugendbuch-Sensation aus Norwegen!Es sind Sommerferien und der fünfzehnjährige Mahmoud stellt sich auf lange Tage außerhalb seines Plattenbau-Viertels am Rand von Oslo ein. Norwegische Norweger verreisen in den Sommerferien, aber was machen mittellose Ausländer? Doch dieser Sommer wird anders. Denn die Familie erhält Besuch von Onkel Ji aus Pakistan und Mahmoud soll ihm die Stadt zeigen. Onkel Ji ist fasziniert von dem fremden Land, doch dann beginnt auch er sich zu fragen, ob mit Ali, Mahmouds kleinem Bruder, etwas nicht stimmt. Denn Ali spielt mit Puppen und benimmt sich nicht so, wie ein Pakistani-Junge sich benehmen sollte ... ",
        "Preis": "15,00",
        "Erscheinungsjahr": "2022",
        "Altersempfehlung": "ab 14 Jahren",
        "Reihe": "",
        "Band": "",
        "Gewicht": "362",
        "Abmessungen": "14,6x21,8",
        "Sprachen": "Deutsch",
        "Kategorien": "",
        "Themen": "Familie, Freundschaft, Integration, Jugendsprache, Norwegen, Oslo, Pakistan, Transsexualität, Zusammenhalt",
        "Einband": "gebunden",
        "Seitenzahl": "208",
        "Antolin": "",
        "AutorIn": "Gulraiz Sharif",
        "Vorlage": "",
        "IllustratorIn": "",
        "ZeichnerIn": "",
        "PhotographIn": "",
        "ÜbersetzerIn": "Meike Blatzheim; Sarah Onkels",
        "HerausgeberIn": "",
        "MitarbeiterIn": ""
    },
    {
        "ISBN": "978-3-492-70625-4",
        "Sortierung": "Pratchett, Terry",
        "Titel": "Der zerstreute Zeitreisende",
        "Untertitel": "Storys",
        "Verlag": "Piper",
        "Inhaltsbeschreibung": "Vom Erfinder der Scheibenwelt und dem Großmeister der Phantastik Terry Pratchett stammen diese 17 bisher unveröffentlichten Kurzgeschichten aus den Anfängen seines Schaffens. Ursprünglich für Tageszeitungen verfasst, erscheinen diese nun erstmals gebündelt in Buchhform. Die Vorstellungskraft kann einen auf den Gipfel des höchsten Berges oder auf den Grund des tiefsten Meeres bringen. Dahin verschlägt es Doggins bei seinem Abenteuer. Auf dem Mond landen drei junge Erfinder, wo sie eventuell eine Flasche Limonade vergessen haben. Und ein Höhlenmensch macht sich auf den Weg zum Zahnarzt. ",
        "Preis": "18,00",
        "Erscheinungsjahr": "2022",
        "Altersempfehlung": "Keine Altersangabe",
        "Reihe": "",
        "Band": "",
        "Gewicht": "",
        "Abmessungen": "13,8x4,3",
        "Sprachen": "Deutsch",
        "Kategorien": "",
        "Themen": "Fantasy, Humor",
        "Einband": "gebunden",
        "Seitenzahl": "352",
        "Antolin": "",
        "AutorIn": "Terry Pratchett",
        "Vorlage": "",
        "IllustratorIn": "Mark Beech",
        "ZeichnerIn": "",
        "PhotographIn": "",
        "ÜbersetzerIn": "Andreas Brandhorst",
        "HerausgeberIn": "",
        "MitarbeiterIn": ""
    }
]