[
    {
        "ISBN": "978-3-8251-5315-1",
        "Sortierung": null,
        "Titel": "Daniela Drescher - Kalender 2023",
        "Untertitel": "Mit Motiven aus 'Die 100 schönsten Märchen der Brüder Grimm'",
        "Verlag": "Urachhaus",
        "Inhaltsbeschreibung": "Märchenhaftes von Daniela DrescherUnter den zahlreichen Büchern Daniela Dreschers nimmt ihr opulent bebildertes Meisterwerk 'Die 100 schönsten Märchen der Brüder Grimm' mit inzwischen über 60.000 verkauften Exemplaren eine Sonderstellung ein.In den nächsten Jahren folgen weitere Kalender mit Motiven aus dem umfassenden Werk Daniela Dreschers. ",
        "Preis": "24,90",
        "Erscheinungsjahr": "2022",
        "Altersempfehlung": "",
        "Reihe": "",
        "Band": "",
        "Gewicht": "730",
        "Abmessungen": "41,5x57,5",
        "Sprachen": "Deutsch",
        "Kategorien": "",
        "Themen": "Grimms Märchen"
    },
    {
        "ISBN": "978-3-8401-9509-9",
        "Sortierung": null,
        "Titel": "Woodwalkers Seawalkers Kalender 2023",
        "Untertitel": "",
        "Verlag": "Heye Kalender",
        "Inhaltsbeschreibung": "Das wird die Fans freuen: alle Gestaltwandler gesammelt präsentiert in unserem dekorativen Kalender! Jeder Monat zeigt eine fantastische Illustration von Claudia Carls aus der Buch-Bestsellerreihe Woodwalkers und Seawalkers von Autorin Katja Brandis aus dem Arena Verlag. Dazu gibt es ein übersichtliches Kalendarium. ",
        "Preis": "11,99",
        "Erscheinungsjahr": "2022",
        "Altersempfehlung": "",
        "Reihe": "",
        "Band": "",
        "Gewicht": "455",
        "Abmessungen": "34x44",
        "Sprachen": "Deutsch",
        "Kategorien": "",
        "Themen": "Fantasy-Art (Kalender), Wand-Kalender"
    },
    {
        "ISBN": "978-3-7795-0679-9",
        "Sortierung": null,
        "Titel": "Leonard Erlbruchs Kinderzimmerkalender 2023",
        "Untertitel": "Familienfreuden",
        "Verlag": "Peter Hammer Verlag",
        "Inhaltsbeschreibung": "Übermütige Welpen, die beim Tauziehen ihre Kräfte messen, ausgelassene Hasenkinder beim Eiersuchen am Ostermorgen, eine stillvergnügte Mäusefamilie, die in der winzigen Stube den Weihnachtsbaum mit duftenden Käseecken schmückt... Familienfreuden aller Art zeigt Leonard Erlbruch auf den farbenfrohen Monatsblättern seines neuen Kinderzimmerkalenders. ",
        "Preis": "22,00",
        "Erscheinungsjahr": "2022",
        "Altersempfehlung": "",
        "Reihe": "",
        "Band": "",
        "Gewicht": "758",
        "Abmessungen": "42x58,5",
        "Sprachen": "Deutsch",
        "Kategorien": "",
        "Themen": "Entdecker (Kalender), Erlbruch, Leonard (Kalender), Kinder-Kalender"
    },
    {
        "ISBN": "978-3-89565-973-7",
        "Sortierung": null,
        "Titel": "Der Kinder Kalender 2023",
        "Untertitel": "Mit 53 Gedichten und Bildern aus der ganzen Welt",
        "Verlag": "Moritz",
        "Inhaltsbeschreibung": "Aus vielen Kinderzimmern, Familienküchen, Schulen und Kindergärten ist er nicht mehr wegzudenken: Seit 2011 begleitet \"Der Kinder Kalender\" mit Gedichten und Bildernaus der ganzen Welt Woche für Woche durch das Jahr. Jeden Montag gibt es ein neues zweisprachiges Gedicht. Mal ist es gereimt, mal nicht, manchmal heiter oder nachdenklich, zum Auswendiglernen, zum Vorlesen und Selberlesen, zum Lachen und Träumen. Originalillustrationen begleiten und rahmen die Gedichte.Unsere Welt ist vielfältig - und so sind auch die Texte und Illustrationen. Ab 2023 erscheint der Kalender im Moritz Verlag - sonst ändert sich nichts: 53 zweisprachige Gedichte aus aller Welt, ausgewählt von der Internationalen Jugendbibliothek in München, gestaltet von Max Bartholl. ",
        "Preis": "22,00",
        "Erscheinungsjahr": "2022",
        "Altersempfehlung": "",
        "Reihe": "",
        "Band": "",
        "Gewicht": "925",
        "Abmessungen": "30,6x33,8",
        "Sprachen": "Deutsch",
        "Kategorien": "",
        "Themen": "Kinder-Kalender, Kindergedichte, Kinderlyrik"
    },
    {
        "ISBN": "978-3-7160-9416-7",
        "Sortierung": null,
        "Titel": "Arche Märchen Kalender 2023",
        "Untertitel": "",
        "Verlag": "Arche Verlag",
        "Inhaltsbeschreibung": "Eine zauberhafte Entdeckungsreise durch die Welt der Märchen.Auch 2023 ist der 'Arche Märchen Kalender' ein großer Schatz für alle, die sich von nie gehörten Abenteuern und vertrauten alten Geschichten erzählen lassen möchten. Mit wunderschönen großformatigen Bildern und liebevollen Texten führt der Kalender durch die funkelnde Welt der Märchen.Mit dabei: Rotkäppchen, Bella und der Bär, Frau Holle, Aladdin, Der kleine Muck, Das Traumfresserchen, Peter und der Wolf, Hans im Glück ... und viele andere mehr! ",
        "Preis": "20,00",
        "Erscheinungsjahr": "2022",
        "Altersempfehlung": "",
        "Reihe": "",
        "Band": "",
        "Gewicht": "834",
        "Abmessungen": "33,5x46,5",
        "Sprachen": "Deutsch",
        "Kategorien": "",
        "Themen": "Kinder-Kalender, Wand-Kalender"
    },
    {
        "ISBN": "978-3-7160-9415-0",
        "Sortierung": null,
        "Titel": "Arche Kinder Kalender 2023",
        "Untertitel": "Geschichten, Gedichte und Figuren aus der Kinderbuchwelt",
        "Verlag": "Arche Verlag",
        "Inhaltsbeschreibung": "Mit den schönsten Geschichten, Gedichten und Kinderbuchfiguren durch das Jahr.Ob beim Lesenlernen oder beim Vorlesen, ob im Klassenraum oder im Kinderzimmer: der 'Arche Kinder Kalender' ist für unzählige Kinder ein vertrauter und beliebter Begleiter durch den Alltag geworden. Auch 2023 versammelt er wieder die schönsten Klassiker und tollsten neuen Funde aus der Kinderbuchwelt, liebevoll zusammengestellt von Sophie Härtling und Kristina Kreuzer. Die Reise geht dieses Jahr vom Märchenwald bis weit hinaus zum Mond.Mit dabei: Bernadette, Cornelia Funke, Helme Heine, Daniela Kulot, Axel Scheffler, Otfried Preußler ... und viele andere mehr! ",
        "Preis": "20,00",
        "Erscheinungsjahr": "2022",
        "Altersempfehlung": "",
        "Reihe": "",
        "Band": "",
        "Gewicht": "912",
        "Abmessungen": "30,6x34",
        "Sprachen": "Deutsch",
        "Kategorien": "",
        "Themen": "Kinder-Kalender, Wand-Kalender"
    }
]