[
    {
        "ISBN": "978-3-407-86768-1",
        "EAN": "9783407867681",
        "Titel": "Queere Kinder",
        "Untertitel": "Eine Orientierungshilfe für Familien von LGBTQIA+ -Kindern und -Jugendlichen",
        "Verlag": "Beltz",
        "Inhaltsbeschreibung": [
            "»Mein Kind ist queer - und nun?«",
            "Wenn die 12-Jährige beim Abendessen erklärt, dass sie in ein Mädchen verliebt ist, oder das 16-jährige Kind sich als genderfluid outet - dann sind viele Eltern erst einmal ratlos, machen sich Sorgen und fragen sich, ob das nur eine Phase und ein Ausprobieren ist - oder mehr?Verena Carl, Mutter eines queeren Teenagers, und Christiane Kolb, Sexualwissenschaftlerin, stehen Eltern von queeren Kindern mit Wissen und Rat zur Seite - ob lesbisch, non-binär, trans_ oder ganz ohne Label. Sie bieten umfassende Informationen zur Vielfalt sexueller Orientierungen und Geschlechtsidentitäten, mit denen Kinder und Jugendliche heute viel selbstverständlicher umgehen als die Generationen vor ihnen.Begleitet wird ihre fundierte und einfühlsame Annäherung an ein für Eltern oft schwieriges Thema von zahlreichen Interviews, u.a. mit einem trans_ Jungen, dem Vater einer lesbischen Tochter sowie einer Psychologin, einem Mediziner und einem Soziologen. Übungen z.B. zum Umgang mit widerstreitenden Gefühlen, Leitfäden für Familiengespräche auf Augenhöhe sowie ein ausführliches Glossar runden das Buch ab.",
            "»Dieses Buch öffnet uns Türen, wo wir sonst oft nur durchs Schlüsselloch geschaut haben. Wie gut, solch differenzierte Einblicke zu erhalten, die uns Eltern die Orientierung erleichtern.« Lisa Harmann, Familienjournalistin und Bloggerin (Stadt Land Mama)   »Dieses wichtige Buch hilft Eltern, ihre Kinder im Anderssein zu verstehen und besser damit umzugehen. Indem sie die vielleicht als zunächst fremd empfundenen Lebensentwürfe unterstützen, tragen sie maßgeblich dazu bei, dass sich ihre Kinder glücklich entfalten können.« Dr. med. Achim Wüsthof, Kinder- und Jugendendokrinologe",
            "Verena Carl ist Journalistin für Psychologie- und Gesellschaftsthemen, Autorin zahlreicher Romane und Sachbücher sowie Mutter eines Teenagers, die sich seit vielen Jahren als genderfluid und bi definiert. Für ihr literarisches Werk wurde sie unter anderem zweimal mit dem Hamburger Förderpreis für Literatur ausgezeichnet. Verena Carl lebt mit ihren zwei Kindern und ihrem Mann in Hamburg.\n\nChristiane Kolb hat ein Masterstudium für Angewandte Sexualwissenschaft abgeschlossen und arbeitet als Systemische Beraterin und Referentin für Sexuelle Bildung. Die Journalistin, Buchautorin und Mutter zweier Kinder lebt mit ihrer Familie in Hamburg."
        ],
        "Preis": "22,00",
        "Erscheinungsjahr": "2023",
        "Altersempfehlung": "Keine Altersangabe",
        "Reihen": [],
        "Gewicht": "375",
        "Abmessungen": "14x21,7",
        "Sprachen": "Deutsch",
        "Mehrwehrtsteuersatz": "halb",
        "Kategorien": [],
        "Themen": [
            "Diversität",
            "Geschlechtsidentität",
            "Mobbing",
            "Selbstbestimmung",
            "Toleranz",
            "Transgender"
        ],
        "Einband": "kartoniert/broschiert",
        "Seitenzahl": "260",
        "Antolin": null,
        "AutorIn": [
            {
                "firstName": "Verena",
                "lastName": "Carl"
            }
        ],
        "Vorlage": [],
        "IllustratorIn": [],
        "ZeichnerIn": [],
        "PhotographIn": [],
        "ÜbersetzerIn": [],
        "HerausgeberIn": [],
        "MitarbeiterIn": []
    },
    {
        "ISBN": "978-3-407-86751-3",
        "EAN": "9783407867513",
        "Titel": "Wenn Kinder unter Kindern leiden",
        "Untertitel": "Prävention und Akuthilfe für Eltern bei Mobbing und Stalking. Mit Online-Material",
        "Verlag": "Beltz",
        "Inhaltsbeschreibung": [
            "Was Eltern für ihre Kinder tun können bei Mobbing & Stalking",
            "Mobbing- und Stalkingerfahrungen unter Kindern und Jugendlichen sind weit verbreitet in der Schule, den digitalen Medien, aber auch zwischen Geschwistern. Viele Kinder schweigen aus Scham, auch ihren Eltern gegenüber. Diese wiederum sind verunsichert, ob Mobbing oder z. B. ein normaler Konflikt vorliegt.Der Kinder- und Jugendpsychiater und Psychotherapeut Michael Elpers bietet nicht nur für Eltern sowohl Hilfestellung zur Prävention, dem Erkennen von versteckten Anzeichen für Mobbing sowie Entlastung und Auswege bei konkreten Vorfällen. Denn Mobbing- und Stalkingerfahrungen können zu Ängsten, Depressionen oder psychosomatischen Beschwerden führen. Mithilfe vieler Fallbeispiele berät er Eltern und ihre Kinder, was sie tun können: Gespäche mit der Schule führen, Entscheidungshilfe bei Beratungs- oder Therapieauswahl, Stärkung des Selbstwerts. Dr. Elpers erläutert auch die psychologischen Beweggründe von Täter:innen, um vollumfassend über Mobbing und Stalking aufzuklären. Ergänzend gibt es sowohl im Buch als auch zum Downloaden Checklisten für Eltern, jüngere Kinder und Jugendliche, sowie ein Kapitel, das sich direkt an die Kinder wendet.",
            "Dr. med. Michael Elpers ist seit über 25 Jahren als Kinder- und Jugendpsychiater und Psychotherapeut tätig. Nach seiner langjährigen Tätigkeit in der Berliner Charité leitet er mit zwei Kolleginnen eine sozialpsychiatrische Gemeinschaftspraxis für Kinder- und Jugendpsychiatrie und -psychotherapie in Berlin. Er war jahrelang im Vorstand des Fördervereins von »Achtung Kinderseele« aktiv, außerdem ist er Gründungsmitglied von »NACOA«, ein Verein, der Kinder suchtkranker Eltern unterstützt."
        ],
        "Preis": "21,00",
        "Erscheinungsjahr": "2023",
        "Altersempfehlung": "Keine Altersangabe",
        "Reihen": [],
        "Gewicht": "303",
        "Abmessungen": "13,5x1,4",
        "Sprachen": "Deutsch",
        "Mehrwehrtsteuersatz": "halb",
        "Kategorien": [],
        "Themen": [
            "Bullying",
            "Cybermobbing"
        ],
        "Einband": "kartoniert/broschiert",
        "Seitenzahl": "206",
        "Antolin": null,
        "AutorIn": [
            {
                "firstName": "Michael",
                "lastName": "Elpers"
            }
        ],
        "Vorlage": [],
        "IllustratorIn": [],
        "ZeichnerIn": [],
        "PhotographIn": [],
        "ÜbersetzerIn": [],
        "HerausgeberIn": [],
        "MitarbeiterIn": []
    },
    {
        "ISBN": "978-3-03967-008-6",
        "EAN": "9783039670086",
        "Titel": "Innerlich bin ich aus Lakritze",
        "Untertitel": "",
        "Verlag": "Woow Books",
        "Inhaltsbeschreibung": [
            "Normalität ist doch nur eine graue Schnittmenge ohne Geschmack            \n            \n                »Ich heiße Lilou Rosinke, bin 12 Jahre alt und wirke auf den ersten Blick ziemlich gewöhnlich. Dabei bin ich das gar nicht. Die Sache ist, dass meine fünf Sinne vermischt sind. Eine Art Mischimaschi - wie eine gemischte Tüte Süßigkeiten. Manche Wörter, Buchstaben und Zahlen oder Stimmungen haben für mich eine bestimmte Farbe, einen bestimmten Geruch oder Geschmack. Ich selbst fühle mich preußischblau mit einem Hauch von Lakritze.«",
            "Katja Ludwig lebt mit ihrer Familie in Berlin und Brandenburg. Sie arbeitet als Ärztin und Autorin. Am liebsten schreibt sie Romane für Kinder und nascht dabei weiches Salzlakritz und Lakritzschokolade.\n\nUlrike Möltgen, geboren 1973 in Wuppertal, studierte Kommunikationsdesign bei Wolf Erlbruch.Sie lehrte als Dozentin an der Folkwang Universität der Künste in Essen, ihre Arbeiten werden vielfach ausgezeichnet und in Ausstellungen gezeigt.Sie lebt mit ihrem Sohn in Wuppertal."
        ],
        "Preis": "14,00",
        "Erscheinungsjahr": "2023",
        "Altersempfehlung": "ab 9 Jahren",
        "Reihen": [],
        "Gewicht": "",
        "Abmessungen": "15",
        "Sprachen": "Deutsch",
        "Mehrwehrtsteuersatz": "halb",
        "Kategorien": [],
        "Themen": [
            "Berlin",
            "Familie",
            "Großstadt",
            "Synästhesie"
        ],
        "Einband": "gebunden",
        "Seitenzahl": "160",
        "Antolin": null,
        "AutorIn": [
            {
                "firstName": "Katja",
                "lastName": "Ludwig"
            }
        ],
        "Vorlage": [],
        "IllustratorIn": [
            {
                "firstName": "Ulrike",
                "lastName": "Möltgen"
            }
        ],
        "ZeichnerIn": [],
        "PhotographIn": [],
        "ÜbersetzerIn": [],
        "HerausgeberIn": [],
        "MitarbeiterIn": []
    },
    {
        "ISBN": "978-3-7795-0712-3",
        "EAN": "9783779507123",
        "Titel": "Mut ist was Gutes",
        "Untertitel": "Gedichte zu Bildern von Wolf Erlbruch",
        "Verlag": "Peter Hammer Verlag",
        "Inhaltsbeschreibung": [
            "Wer sein Herz in die Hand nimmt und das Zaudern überwindet, auf den wartet echtes Hochgefühl! Wolf Erlbruch hat diesen speziellen Moment in hinreißenden Bildern eingefangen. Arne Rautenberg hat sich von ihnen inspirieren lassen zu vergnüglichen Gedichten.",
            "Arne Rautenberg, geboren 1967 in Kiel, studierte Kunstgeschichte, Literaturwissenschaft und Volkskunde. Für \"unterm bett liegt ein skelett\" wurde er 2016 mit dem Josef-Guggenmos-Preis für Kinderlyrik geehrt, 2022 erhielt er das Stipendium der Deutschen Akademie Rom Villa Massimo. Arne Rautenberg lebt als Schriftsteller, Künstler und Kulturjournalist in seiner Geburtsstadt.\n\nWolf Erlbruch, geboren 1948, schrieb und illustrierte über 30 Bilderbücher und 19 Ausgaben des berühmten Kinderzimmerkalenders. Für sein Gesamtwerk erhielt er u.a. den Sonderpreis des Deutschen Jugendliteraturpreises und den Hans Christian Andersen Preis. 2017 verlieh ihm der schwedische Kulturrat die höchste internationale Auszeichung im Bereich der Kinder- und Jugendliteratur, den Astrid Lindgren Memorial Award. Wolf Erlbruch lebte bis zu seinem Tod im Dezember 2022 in Wuppertal."
        ],
        "Preis": "14,00",
        "Erscheinungsjahr": "2023",
        "Altersempfehlung": "Keine Altersangabe",
        "Reihen": [],
        "Gewicht": "258",
        "Abmessungen": "18,5x22,2",
        "Sprachen": "Deutsch",
        "Mehrwehrtsteuersatz": "halb",
        "Kategorien": [],
        "Themen": [
            "Geschenkbuch",
            "Mut"
        ],
        "Einband": "gebunden",
        "Seitenzahl": "48",
        "Antolin": null,
        "AutorIn": [
            {
                "firstName": "Arne",
                "lastName": "Rautenberg"
            }
        ],
        "Vorlage": [],
        "IllustratorIn": [
            {
                "firstName": "Wolf",
                "lastName": "Erlbruch"
            }
        ],
        "ZeichnerIn": [],
        "PhotographIn": [],
        "ÜbersetzerIn": [],
        "HerausgeberIn": [],
        "MitarbeiterIn": []
    },
    {
        "ISBN": "978-3-407-86658-5",
        "EAN": "9783407866585",
        "Titel": "Trennung ohne Drama",
        "Untertitel": "Wie wir Kinder beschützt durch familiäre Veränderungen begleiten. Ein artgerecht-Buch",
        "Verlag": "Beltz",
        "Inhaltsbeschreibung": [
            "Was Kinder brauchen, wenn Eltern sich trennen",
            "Schadet jede Trennung den Kindern? Mitnichten! Neueste Erkenntnisse der Forschung sowie Langzeitstudien belegen: Wie Kinder eine Trennung bewältigen, hat viel damit zu tun, wie friedlich wir Eltern unsere Konflikte austragen und wie gut wir für unsere Kinder da sind. Schritt für Schritt erklärt Nicola Schmidt, die Expertin für artgerechte Erziehung, wie Eltern und andere Bezugspersonen Kinder bedürfnisorientiert und achtsam durch diese Zeit bringen. Es fängt mit der Frage an, wie wir Kindern eine Trennung erklären, über die richtige Auswahl des Betreuungsmodells bis hin zum Kinder- und Gewaltschutz bei hochkonflikthaften Trennungen. Mit ihrer Trennung-ohne-Drama-Methode zeigt Nicola Schmidt, wie Eltern handlungsfähig bleiben und für ihre Kinder da sein können, auch wenn es stressig wird. Dazu gehören auch die Geheimnisse der richtigen Paarkommunikation, konkrete Verhandlungstechniken, die Frage nach dem Geld, aber auch Checklisten, z.B. wie Eltern im Konfliktfall die richtige anwaltliche Vertretung finden. Von der Selbstfürsorge bis zur richtigen Vorbereitung auf den Jugendamts- oder Gerichtstermin ist das Buch randvoll mit praktischen Tipps. Und hilft Eltern und Kindern, die Trennung so zu bewältigen, dass sie als Familie daran wachsen können.",
            "»Dieses brillante Buch zeigt, wie Eltern ihre Kinder zugewandt und kompetent durch die Trennung begleiten.« Anne Dittmann, Bestsellerautorin und Journalistin",
            "Nicola Schmidt ist zweifache Mutter, Bestsellerautorin, hat einen Master in Sozialwissenschaften, ist ausgebildete Wissenschaftsjournalistin und Coachin sowie Gründerin und Geschäftsführerin des »artgerecht«-Projektes. Mit vielen Fortbildungen rund um Emotionelle Erste Hilfe und Infant Mental Health hat sie sich in den vergangenen zehn Jahren auf das Thema mentale Gesundheit bei Babys und Kleinkindern spezialisiert. Sie gibt ihr Wissen in Camps, Ausbildungskursen und Workshops an Eltern, medizinisches und pädagogisches Fachpersonal weiter. Weitere Informationen unter: www.nicolaschmidt.de und www.artgerecht-projekt.de."
        ],
        "Preis": "22,00",
        "Erscheinungsjahr": "2023",
        "Altersempfehlung": "Keine Altersangabe",
        "Reihen": [],
        "Gewicht": "",
        "Abmessungen": "13,8",
        "Sprachen": "Deutsch",
        "Mehrwehrtsteuersatz": "halb",
        "Kategorien": [],
        "Themen": [
            "Jugendamt"
        ],
        "Einband": "gebunden",
        "Seitenzahl": "272",
        "Antolin": null,
        "AutorIn": [
            {
                "firstName": "Nicola",
                "lastName": "Schmidt"
            }
        ],
        "Vorlage": [],
        "IllustratorIn": [],
        "ZeichnerIn": [],
        "PhotographIn": [],
        "ÜbersetzerIn": [],
        "HerausgeberIn": [],
        "MitarbeiterIn": []
    },
    {
        "ISBN": "978-3-522-20293-0",
        "EAN": "9783522202930",
        "Titel": "Otfried Preußler",
        "Untertitel": "Ein Leben in Geschichten | Biografie über den Schöpfer des Räuber Hotzenplotz, der kleinen Hexe u.v.m.",
        "Verlag": "Thienemann in der Thienemann-Esslinger Verlag GmbH",
        "Inhaltsbeschreibung": [
            "Die erste vollständige Biografie von Otfried Preußler: tiefe Einblicke in Leben und Werk des großen Geschichtenerzählers. \n\nWussten Sie, dass Otfried Preußler eine Geschichte plante, in der die kleine Hexe auf den Räuber Hotzenplotz treffen sollte? Und dass Michael Ende gerne bei Familie Preußler zu Besuch war? Immerhin hatten Preußler und Ende ein großes gemeinsames Interesse: Zauberei und Hexenkünste. Nach intensiven Recherchen gibt Tilman Spreckelsen tiefe Einblicke in Leben und Werk des bekannten Kinderbuchautors. Er überrascht mit völlig neuen Erkenntnissen, zeigt berührende Ausschnitte aus dem Privatleben Otfried Preußlers und lässt die Entstehung der bekannten Klassiker lebendig werden. Eine Biografie, die sich ebenso informativ wie unterhaltsam liest. So nah sind Leserinnen und Leser dem berühmten Autor bisher nicht gekommen! \nDie einzige Biografie von Otfried Preußler, die sein ganzes Leben und sein Gesamtwerk in den Blick nimmtÜberraschende und faszinierende Erkenntnisse und Analysen vom Preußler-Experten Tilman SpreckelsenEine Hommage und intensive Auseinandersetzung mit dem bekannten Schriftsteller",
            "Tilman Spreckelsen, Jahrgang 1967, ist Literaturredakteur der FAZ und dort unter anderem für Kinder- und Jugendliteratur zuständig. Er hat bereits zahlreiche Romane, Erzählungen und Essays veröffentlicht, die mehrfach ausgezeichnet wurden. Für die Jubiläumsausgabe von Otfried Preußlers \"Krabat\" schrieb er das Nachwort.\n\n\n\nFranz Josef Tripp wurde am 7. Dezember 1915 in Essen geboren. Er arbeitete zunächst als Journalist und Schriftsteller, bis er kurz vor Ausbruch des Zweiten Weltkriegs begann seine Texte selbst zu illustrieren. Nach dem Krieg entschloss er sich, bei der Malerei zu bleiben und ging beim Innsbrucker Maler und Grafiker Heinrich Berann in die Lehre. 1949 machte er sich als Grafiker selbstständig. Zunächst arbeitete er vor allem als Werbegrafiker, doch zunehmend gewann die Buchillustration für ihn an Bedeutung. 1960 erhielt er von Lotte Weitbrecht, der damaligen Verlegerin des Thienemann Verlags, den Auftrag, \"Jim Knopf und Lukas der Lokomotivführer\" von Michael Ende zu illustrieren. Aus der ursprünglichen Arbeitsbeziehung zwischen Autor und Illustrator entstand eine enge Freundschaft . Außer den beiden \"Jim Knopf-Bänden\" illustrierte Tripp für den Thienemann Verlag \"Robbi, Tobbi und das Fliewatüüt\" von Boy Lornsen sowie \"Das kleine Gespenst\" und die drei \"Räuber Hotzenplotz\"-Bücher von Otfried Preußler. Er starb am 18. Februar 1978.\n\n\n\nWinnie Gebhardt wurde 1929 in Stuttgart geboren. Schon in ihrer Schulzeit zeichnete sie oft zum jeweiligen Thema an den Rand ihrer Schulhefte. Als der Krieg begann, war sie zehn Jahre alt. Mit 16 Jahren, die Schulen waren seit mehr als einem Jahr geschlossen, stand sie in den Ruinen Stuttgarts - an Ausbildung war vorerst nicht zu denken. Nach Ende des Krieges und der Nachkriegszeit machte sie ihr Abitur nach. Später bewarb sie sich an der Akademie der Bildenden Künste Stuttgart und wurde aufgenommen. Sie studierte fünf Jahre Graphik, Malerei und Lithographie. Der Zufall verschaffte ihr die ersten Aufträge als Illustratorin: Über Bekannte lernte die frisch gebackene Studienabgängerin Lotte Weitbrecht kennen, die bald Michael Ende entdecken würde. \"'Fräulein Weitbrecht', wie man damals noch sagte, zeigte mir das eben eingetroffene Manuskript vom Wassermann und bat mich um Probezeichnungen und einen Umschlagentwurf.\" Wenig später illustrierte Winnie Gebhardt auch \"Die kleine Hexe\" und schuf eine charakteristische Umschlaggestaltung, an der der Verlag seither nichts verändert hat. Sie illustrierte viele weitere erzählende Kinderbücher für den Thienemann Verlag, schuf sich aber auch bei Schulbuch-Verlagen einen Namen, bei denen sie Fibeln gestaltete. Neben ihrer Tätigkeit als Illustratorin entwarf sie für ein englisches Lebensmittel-Unternehmen Plakate für Pudding und Marmelade. Später arbeitete sie regelmäßig für eine Kinderzeitschrift, mitunter entwarf sie Spiele. Winnie Gebhardt starb am 27. August 2014 im Alter von 85 Jahren.\n\n\n\nHerbert Holzing, 1931 in Trier geboren, studierte an der Kunstakademie Karlsruhe und an der Werkkunstschule Trier und arbeitete anschließend in verschiedenen Werbeagenturen. 1966 machte er sich als Grafiker selbständig. Er illustrierte zahlreiche Kinder- und Jugendbücher. Besonders durch seine Illustrationen von Otfried Preußlers \"Krabat\" oder \"Die Glocke vom grünen Erz\" wurde Herbert Holzig bekannt. Mit Otfried Preußler verband ihn eine lange Freundschaft, die durch die Begeisterung für dessen Bücher begann. \"Preußler hat so bildhaft geschrieben, dass ich die Bilder sofort vor mir sah.\" Wenn Holzing illustrierte tat er das gleichermaßen mit künstlerischem wie pädagogischem Eifer. \"Ich will den Kindern mit meinen Bildern zeigen, wie es zu der Zeit aussieht, in der die Geschichte spielt.\" Herbert Holzing starb i"
        ],
        "Preis": "29,00",
        "Erscheinungsjahr": "2023",
        "Altersempfehlung": "ab 14 Jahren",
        "Reihen": [],
        "Gewicht": "",
        "Abmessungen": "13,8x3",
        "Sprachen": "Deutsch",
        "Mehrwehrtsteuersatz": "halb",
        "Kategorien": [],
        "Themen": [
            "Biografie",
            "Biografien/Erinnerungen"
        ],
        "Einband": "gebunden",
        "Seitenzahl": "304",
        "Antolin": null,
        "AutorIn": [
            {
                "firstName": "Tilman",
                "lastName": "Spreckelsen"
            }
        ],
        "Vorlage": [],
        "IllustratorIn": [
            {
                "firstName": "F. J.",
                "lastName": "Tripp"
            }
        ],
        "ZeichnerIn": [],
        "PhotographIn": [
            {
                "firstName": "Hanns-Wilhelm",
                "lastName": "Grobe"
            }
        ],
        "ÜbersetzerIn": [],
        "HerausgeberIn": [],
        "MitarbeiterIn": [
            {
                "firstName": "Suse",
                "lastName": "Kopp"
            }
        ]
    },
    {
        "ISBN": "978-3-907277-20-1",
        "EAN": "9783907277201",
        "Titel": "Damals, im Sommer",
        "Untertitel": "Ein Bilderbuch aus China. Bilderbuch",
        "Verlag": "Baobab Books",
        "Inhaltsbeschreibung": [
            "Was für ein üppiger Sommer: In den Gärten und auf den Feldern gedeiht es prächtig. Große Melonen reifen neben schlanken Gurken, der Pflaumenbaum trägt reichlich Früchte, die Bohnen ranken in die Höhe ...Fast paradiesisch wirkt das Leben in diesem lieblichen Bergtal. Doch mitten in dieser Pracht gilt es, Abschied zu nehmen: Die Familie, die diesen Garten pflegt, wird bald in die Stadt ziehen. Der Vater hat dort Arbeit gefunden. Was für ein Leben wartet dort auf sie? Die Gefühle der drei Geschwister schwanken zwischen Vor- freude, Aufregung und Wehmut. Was sollen sie mitnehmen in die neue Welt? Wird es dort auch einen Markt geben, auf dem man alles findet? Werden sie neue Freundschaften schließen in der unbekannten Stadt? Sie besuchen zum Abschied nochmals ihre Lieblingsorte, treffen sich ein letztes Mal mit ihren Freunden. Dann ist irgendwann alles eingepackt und das Haus leer geräumt. Am Vorabend der Abfahrt geht am Himmel ein heller Stern auf - ist er gekommen, um Adieu zu sagen? Wird er die Familie gar in die neue Welt begleiten?Die fein erzählte Geschichte über Abschied und Neubeginn lässt Raum für die schwankenden Gefühle der Kinder. Die Holzschnitte, mit denen der Künstler Li Xiaoguang die Erzählung aus- drucksstark und detailreich bebildert, fangen die Lebendigkeit und Emotionalität des Moments ein. Unser inneres Auge füllt dabei die schwarz-weißen Linien der klassischen Holzschnitte umgehend mit Farbe.Zwei Jahre lang hat Li an den Bildern zu diesem Text von Wei Jie gearbeitet. Das Bilderbuch wurde als eines der schönsten Bücher Chinas ausgezeichnet.",
            "WEI Jie (_1972) stammt aus der chinesischen Provinz Shaanxi. Im Alter von neun Jahren ist sie mit ihrer Familie vom Land in die Stadt gezogen. Heute lebt sie in Schanghai. Neben ihrer Arbeit als Lektorin in einem Kinderbuchverlag ist sie freischaffende Kinderbuchautorin und hat bereits zahlreiche Bücher veröffentlicht. Dafür wurde sie unter anderem mit dem chinesischen Chen Bochui- Preis für Kinderliteratur ausgezeichnet. Im einst beschaulichen Dorf ihrer Kindheit stehen heute Hochhäuser.\n\nLI Xiaoguang (_1975) wurde im chinesischen Landkreis Ji geboren. Er war noch ein Kind, als die Familie in die Stadt Tangshan umzog. Nach einem Kunststudium an der Universität Hebei absolvierte er an der Central Academy of Fine Arts in Beijing 2009 einen Masterstudiengang in Druckgrafik. Für seine Arbeiten ist Li bereits mehrfach mit Preisen gewürdigt worden, und seine Werke sind in wichtigen nationalen Kunstsammlungen Chinas zu finden. Neben seiner Tätigkeit als freischaffender Künstler unterrichtet er heute an der Kunsthochschule in Nanjing."
        ],
        "Preis": "22,00",
        "Erscheinungsjahr": "2023",
        "Altersempfehlung": "ab 5 Jahren",
        "Reihen": [],
        "Gewicht": "",
        "Abmessungen": "28,5",
        "Sprachen": "Deutsch",
        "Mehrwehrtsteuersatz": "halb",
        "Kategorien": [
            "Bilderbuch"
        ],
        "Themen": [
            "Abschied",
            "Holzschnitt"
        ],
        "Einband": "gebunden",
        "Seitenzahl": "40",
        "Antolin": null,
        "AutorIn": [
            {
                "firstName": "Jie",
                "lastName": "Wei"
            }
        ],
        "Vorlage": [],
        "IllustratorIn": [
            {
                "firstName": "Xiaoguang",
                "lastName": "Li"
            }
        ],
        "ZeichnerIn": [],
        "PhotographIn": [],
        "ÜbersetzerIn": [
            {
                "firstName": "Brigitte",
                "lastName": "Koller Abdi"
            }
        ],
        "HerausgeberIn": [],
        "MitarbeiterIn": []
    }
]