[
    {
        "ISBN": "978-3-03880-045-3",
        "Titel": "Die beste Zeit ist am Ende der Welt",
        "Untertitel": "Ungekürzte Ausgabe",
        "Verlag": "Arctis Verlag",
        "Inhaltsbeschreibung": "                    Nominiert für den Deutschen Jugendliteraturpreis 2022: Ein Coming-of-Age-Roman über Mut, Selbstsuche und Freundschaft                                                    Manchmal musst du alles hinter dir lassen, um deinen Platz in der Welt zu finden.                                Nachdem in ihrem Leben alles gründlich schiefgelaufen ist, steigt die siebzehnjährige Peyton kurzerhand in ein Flugzeug nach Vancouver. Allein. Im Gepäck: jede Menge schlechte Erinnerungen und ihr Skizzenbuch. Sie ist fest entschlossen, allem zu entkommen. Dem Mobbing, der Einsamkeit, der Person, zu der sie geworden ist. Durch glückliche Zufälle und ein bisschen Mut landet Peyton schließlich in einem unvergesslichen Roadtrip-Abenteuer mit einer bunt zusammengewürfelten Truppe Backpacker. Auf ihrer Reise quer durchs Land entdeckt sie nicht nur Kanadas atemberaubende Landschaften, sondern auch, dass es wahre Freundschaft wirklich gibt.                Zum Wegträumen, Mitfühlen und nicht mehr Loslassen! ",
        "Preis": "12,00",
        "Erscheinungsjahr": "2023",
        "Altersempfehlung": "ab 12 Jahren",
        "Reihe": "",
        "Band": "",
        "Gewicht": "396",
        "Abmessungen": "12,6x19",
        "Sprachen": "Deutsch",
        "Kategorien": "",
        "Themen": "Abenteuer, Deutscher Jugendliteraturpreis, Einsamkeit, Freundschaft, Kanada, Mobbing, Reise, Selbstfindung, Vertrauen",
        "Einband": "kartoniert/broschiert",
        "Seitenzahl": "400",
        "Antolin": "",
        "AutorIn": "Sara Barnard",
        "Vorlage": "",
        "IllustratorIn": "",
        "ZeichnerIn": "",
        "PhotographIn": "",
        "ÜbersetzerIn": "Hanna Christine Fliedner",
        "HerausgeberIn": "",
        "MitarbeiterIn": ""
    },
    {
        "ISBN": "978-3-423-74092-0",
        "Titel": "Orte, an denen ich geweint habe (wegen dir)",
        "Untertitel": "Emotionaler, berührender Coming-of-Age-Roman",
        "Verlag": "DTV",
        "Inhaltsbeschreibung": "Liebe kann so toxisch seinAmelie hat häufig geweint, während sie mit Reese zusammen war, und trotzdem war es zu Beginn die perfekteste Beziehung, die sie sich vorstellen konnte. Sie erinnert sich daran, wie sie die Neue in der Klasse war und wie sie sich in Reese verliebte. Wie er ihr Songs schrieb, sie auf die schönsten Dates ausführte, zum ersten Mal mit ihr schlief und wie er sagte, dass er noch nie so für jemanden empfunden habe ... Und sie erinnert sich, wie er immer mehr anfing, sie unsicher und schwierig und verrückt zu nennen. Wie er sie immer mehr isolierte. Amelie sucht all die Orte auf, an denen sie Tränen verschüttet hat. Wenn sie versteht, was in ihrer Beziehung schiefgelaufen ist, findet sie vielleicht einen Weg, endlich zu heilen. ",
        "Preis": "15,00",
        "Erscheinungsjahr": "2023",
        "Altersempfehlung": "ab 14 Jahren",
        "Reihe": "",
        "Band": "",
        "Gewicht": "433",
        "Abmessungen": "13,5x21,2",
        "Sprachen": "Deutsch",
        "Kategorien": "",
        "Themen": "Betrug, Beziehung, Empowerment, Freundschaft, Gewalt, Liebe, Opfer, Psychische Gewalt, Selbstvertrauen",
        "Einband": "kartoniert/broschiert",
        "Seitenzahl": "368",
        "Antolin": "ab 9. Klasse",
        "AutorIn": "Holly Bourne",
        "Vorlage": "",
        "IllustratorIn": "",
        "ZeichnerIn": "",
        "PhotographIn": "",
        "ÜbersetzerIn": "Nina Frey",
        "HerausgeberIn": "",
        "MitarbeiterIn": ""
    },
    {
        "ISBN": "978-3-608-98084-4",
        "Titel": "Die Lüge von Feuer und Ewigkeit",
        "Untertitel": "",
        "Verlag": "Klett-Cotta",
        "Inhaltsbeschreibung": "Etwas stimmt nicht mit der Welt Amarelle. Die Sterne taumeln. Die Jahreszeiten geraten durcheinander. Das Wetter macht, was es will. Lediglich die Priester eines abgelegenen Klosters scheinen seltsam unaufgeregt. Vier Verbündete sollen in einer verdeckten Expedition Licht ins Dunkel bringen und stoßen auf ein furchtbares Geheimnis ... ",
        "Preis": "26,00",
        "Erscheinungsjahr": "2023",
        "Altersempfehlung": "Keine Altersangabe",
        "Reihe": "",
        "Band": "",
        "Gewicht": "858",
        "Abmessungen": "14,8x22,2",
        "Sprachen": "Deutsch",
        "Kategorien": "",
        "Themen": "Fantasy",
        "Einband": "gebunden",
        "Seitenzahl": "640",
        "Antolin": "",
        "AutorIn": "Thilo Corzilius",
        "Vorlage": "",
        "IllustratorIn": "",
        "ZeichnerIn": "",
        "PhotographIn": "",
        "ÜbersetzerIn": "",
        "HerausgeberIn": "",
        "MitarbeiterIn": ""
    },
    {
        "ISBN": "978-3-423-28317-5",
        "Titel": "STONE BLIND - Der Blick der Medusa",
        "Untertitel": "Roman | Der Medusa-Mythos neu erzählt - »klug, fesselnd, kompromisslos!« (Margaret Atwood, auf Twitter)",
        "Verlag": "DTV",
        "Inhaltsbeschreibung": "Medusa - Schwester, Opfer, Monster?Medusa wächst bei ihren Schwestern auf und merkt schnell, dass sie anders ist - eine Sterbliche in einer Familie von Göttern. Von ihrer Schönheit angezogen, bedrängt der Meeresgott Poseidon sie im Tempel der Athene. Die Göttin wähnt ihren Tempel entweiht und lässt ihre Wut an der Unschuldigen aus: Medusa wird in ein Monster mit Schlangenhaaren verwandelt, das kein Lebewesen mehr ansehen kann, ohne es zu Stein erstarren zu lassen. Aus Rücksicht verdammt Medusa sich zu einem Leben in der Einsamkeit. Bis der junge Perseus sich aufmacht, das Haupt eines Ungeheuers zu erlangen...Poetisch und klug erzählt Natalie Haynes die Geschichte einer Frau, die von anderen zum Monster gemacht wird - und sich doch selbst behauptet. ",
        "Preis": "24,00",
        "Erscheinungsjahr": "2023",
        "Altersempfehlung": "Keine Altersangabe",
        "Reihe": "",
        "Band": "",
        "Gewicht": "598",
        "Abmessungen": "14,6x3,6",
        "Sprachen": "Deutsch",
        "Kategorien": "",
        "Themen": "Achill, Antike, Feminismus, Frauenroman, Griechenland, Historische Romane/Erzählungen, Legenden, TikTok, Zeus",
        "Einband": "gebunden",
        "Seitenzahl": "384",
        "Antolin": "",
        "AutorIn": "Natalie Haynes",
        "Vorlage": "",
        "IllustratorIn": "",
        "ZeichnerIn": "",
        "PhotographIn": "",
        "ÜbersetzerIn": "Babette Schröder; Wolfgang Thon",
        "HerausgeberIn": "",
        "MitarbeiterIn": ""
    },
    {
        "ISBN": "978-3-03880-070-5",
        "Titel": "Rosen & Violen - Rosenholm-Trilogie (1)",
        "Untertitel": "Ungekürzte Ausgabe",
        "Verlag": "Arctis Verlag",
        "Inhaltsbeschreibung": "                    Der neue nordische Fantasy-Hit und Buchliebling der Fan-Community!                                Victoria, Kamille, Kirstine und Malou werden auf dem Rosenholm-Internat angenommen, und keine von ihnen ahnt, dass es ihr Leben für immer verändern wird. Denn schon bald stellen die recht unterschiedlichen Mädchen fest, dass Rosenholm kein gewöhnliches Gymnasium ist, sondern ein geheimnisvoller Ort, an dem Fächer wie Nordische Geschichte und Mythologie, Hexerei, Hellseherei und Magie unterrichtet werden. Eine völlig neue Welt tut sich für die vier Mädchen auf, in der sie ihre eigenen Fähigkeiten erst noch kennenlernenmüssen. Doch dann werden sie in einen lange zurückliegenden Mordfall verwickelt, der sich an der Schule ereignet haben soll, mit fatalen Folgen ... ",
        "Preis": "22,00",
        "Erscheinungsjahr": "2023",
        "Altersempfehlung": "ab 12 Jahren",
        "Reihe": "",
        "Band": "",
        "Gewicht": "588",
        "Abmessungen": "14,2x22",
        "Sprachen": "Deutsch",
        "Kategorien": "",
        "Themen": "Außenseiter, Dänemark, Familie, Fantasy, Feminismus, Freundschaft, Gestaltwandler, Internat, Liebe, Mädchen",
        "Einband": "gebunden",
        "Seitenzahl": "368",
        "Antolin": "",
        "AutorIn": "Gry Kappel Jensen",
        "Vorlage": "",
        "IllustratorIn": "",
        "ZeichnerIn": "",
        "PhotographIn": "",
        "ÜbersetzerIn": "Meike Blatzheim; Sarah Onkels",
        "HerausgeberIn": "",
        "MitarbeiterIn": ""
    },
    {
        "ISBN": "978-3-03880-063-7",
        "Titel": "Der beste Beweis bist du selbst",
        "Untertitel": "",
        "Verlag": "Arctis Verlag",
        "Inhaltsbeschreibung": "TJ Powar ist sportlich, beliebt und ein Ass im Debattierklub, in dem sie mit ihrer Cousine Simran meist im Team antritt. Als nach einem gewonnenen Wettbewerb das Siegerfoto der beiden zu einem fiesen Meme verunstaltet wird, das sich über Simrans Körperbehaarung lustig macht, ist TJ schockiert. Sie beschließt, ihre ganz eigene These aufzustellen: »TJ Powar kann ihr haariges Selbst und trotzdem schön sein.« Um das zu beweisen, wirft sie zu Hause Rasierer und Pinzetten weg, cancelt ihre Termine im Waxing-Studio und findet sich schon bald in wortwörtlich haarigen Situationen wieder. Doch ihre sonst so selbstsichere und schlagfertige Art beginnt zu bröckeln, als sie merkt, dass ihr Projekt sie weit mehr kosten könnte als den Platz zwischen ihren Augenbrauen. Es ist ausgerechnet Charlie, ihr härtester und nervigster Debattierkonkurrent, der ihr einige Argumente zum Beweis ihrer These liefert ...                Diese Romcom ist der beste Beweis, dass Lovestory, Humor und Gesellschaftskritik zusammenpassen. ",
        "Preis": "20,00",
        "Erscheinungsjahr": "2023",
        "Altersempfehlung": "ab 14 Jahren",
        "Reihe": "",
        "Band": "",
        "Gewicht": "642",
        "Abmessungen": "15x22",
        "Sprachen": "Deutsch",
        "Kategorien": "",
        "Themen": "Feminismus, Freundschaft, Haare, Punjabi",
        "Einband": "gebunden",
        "Seitenzahl": "320",
        "Antolin": "",
        "AutorIn": "Jesmeen Kaur Deo",
        "Vorlage": "",
        "IllustratorIn": "",
        "ZeichnerIn": "",
        "PhotographIn": "",
        "ÜbersetzerIn": "Meritxell Janina Piel",
        "HerausgeberIn": "",
        "MitarbeiterIn": ""
    },
    {
        "ISBN": "978-3-570-16653-6",
        "Titel": "Nimm mich mit dir, wenn du gehst",
        "Untertitel": "Der erste gemeinsame Roman des New-York-Times-Bestseller-Dreamteams",
        "Verlag": "cbj",
        "Inhaltsbeschreibung": "Ein Mädchen auf der Flucht, ein Bruder auf Spurensuche und ein erschütterndes FamiliengeheimnisEzras Leben ändert sich von einem Tag auf den anderen, als seine ältere Schwester urplötzlich verschwindet. Kein Brief, kein Hinweis, keine Vorwarnung. Das Einzige, was er findet, ist eine geheime Mailadresse. Alles hätte er von seiner großen Schwester erwartet, aber niemals, dass sie ihn alleinlässt. Verzweifelt versucht er, dem Geheimnis ihres Verschwindens auf die Spur zu kommen. Bea weiß schon lange, dass sie von zu Hause fliehen muss. Hals über Kopf, ohne ihren jüngeren Bruder in eine fremde Stadt aufzubrechen war allerdings nie ihr Plan. Doch eine geheimnisvolle Nachricht in ihrem Postfach ändert einfach alles - und sie begibt sich auf die Suche - nach jemandem, von dem sie nicht einmal weiß, ob er je gefunden werden will.Zwei der bedeutendsten Stimmen der YA-Literatur brillieren in dieser Geschichte über Hoffnung, Geschwisterliebe und darüber, was es bedeutet, die eigene Herzens-Familie zu finden ",
        "Preis": "18,00",
        "Erscheinungsjahr": "2023",
        "Altersempfehlung": "ab 14 Jahren",
        "Reihe": "",
        "Band": "",
        "Gewicht": "509",
        "Abmessungen": "13,5x3,3",
        "Sprachen": "Deutsch",
        "Kategorien": "",
        "Themen": "Ausreißer, Briefroman, E-Mail, Familie, Young Adult",
        "Einband": "gebunden",
        "Seitenzahl": "352",
        "Antolin": "",
        "AutorIn": "David Levithan; Jennifer Niven",
        "Vorlage": "",
        "IllustratorIn": "",
        "ZeichnerIn": "",
        "PhotographIn": "",
        "ÜbersetzerIn": "Bernadette Ott",
        "HerausgeberIn": "",
        "MitarbeiterIn": ""
    },
    {
        "ISBN": "978-3-423-76419-3",
        "Titel": "Last night at the Telegraph Club",
        "Untertitel": "Die preisgekrönte Geschichte einer ersten Liebe, die Millionen auf TikTok bewegt hat",
        "Verlag": "DTV",
        "Inhaltsbeschreibung": "Was, wenn deine Liebe verboten ist?Die siebzehnjährige Lily wächst Mitte der 50er Jahre in der chinesischen Community von San Francisco auf. Als sie bei einem Schulprojekt Kathleen kennenlernt, wird ihr klar, dass sie anders ist - und anders fühlt - als die anderen Mädchen. Die beiden freunden sich an und besuchen nachts heimlich eine verbotene Lesbenbar, den Telegraph Club. Hier taucht Lily in eine Welt ein, die sie maßlos fasziniert. Und ihr wird klar, dass sie mehr für Kath empfindet.Doch das Amerika des Jahres 1954 ist kein sicherer Ort für zwei Mädchen, die sich verlieben, schon gar nicht in Chinatown. Als ihre nächtlichen Besuche des Telegraph Club auffliegen, hat dies Folgen für Lilys Familie. Dennoch kann und will sie ihre Liebe zu Kath nicht aufgeben. ",
        "Preis": "19,00",
        "Erscheinungsjahr": "2023",
        "Altersempfehlung": "ab 14 Jahren",
        "Reihe": "",
        "Band": "",
        "Gewicht": "",
        "Abmessungen": "14,3",
        "Sprachen": "Deutsch",
        "Kategorien": "",
        "Themen": "Erste Liebe, Kalter Krieg, Kommunismus, Liebe, Nachtclub, San Francisco, TikTok, USA",
        "Einband": "gebunden",
        "Seitenzahl": "448",
        "Antolin": "",
        "AutorIn": "Malinda Lo",
        "Vorlage": "",
        "IllustratorIn": "",
        "ZeichnerIn": "",
        "PhotographIn": "",
        "ÜbersetzerIn": "Beate Schäfer",
        "HerausgeberIn": "",
        "MitarbeiterIn": ""
    },
    {
        "ISBN": "978-3-551-58493-9",
        "Titel": "WEIL.",
        "Untertitel": "Ein beklemmender Psychothriller für Jugendliche über Angst, Ohnmacht und Gewalt",
        "Verlag": "Carlsen",
        "Inhaltsbeschreibung": "Es gibt kein Entrinnen! ",
        "Preis": "13,00",
        "Erscheinungsjahr": "2023",
        "Altersempfehlung": "ab 14 Jahren",
        "Reihe": "",
        "Band": "",
        "Gewicht": "256",
        "Abmessungen": "13,4x21,6",
        "Sprachen": "Deutsch",
        "Kategorien": "",
        "Themen": "Das Böse, Ethik, Gruppendynamik, Terror, Zivilcourage",
        "Einband": "gebunden",
        "Seitenzahl": "128",
        "Antolin": "",
        "AutorIn": "Martin Muser",
        "Vorlage": "",
        "IllustratorIn": "",
        "ZeichnerIn": "",
        "PhotographIn": "",
        "ÜbersetzerIn": "",
        "HerausgeberIn": "",
        "MitarbeiterIn": ""
    },
    {
        "ISBN": "978-3-423-62782-5",
        "Titel": "Die Geschichte von Baby und Solo",
        "Untertitel": "",
        "Verlag": "DTV",
        "Inhaltsbeschreibung": "Eine filmreife FreundschaftDer Teilzeitjob in der Videothek ist für den 17-jährigen Joel der erste Schritt in Richtung eines normalen Lebens, seit »das Schlimme« passiert ist. Die Arbeit bei ROYO Video ist der perfekte Neuanfang. Joel bekommt sogar einen neuen Namen nach einer Filmfigur verpasst und wird künftig »Solo« genannt. Und dann drängt »Baby« in sein Leben: eine vorlaute Mitarbeiterin, die sich über so ziemlich alles aufregt. Zwischen den beiden entwickelt sich eine turbulente Freundschaft, die schnell an Tiefe gewinnt. Als Joels Vergangenheit ihn jedoch einholt, muss er sich entscheiden: Behält er sein neues Image als unbeschriebenes Blatt bei? Oder öffnet er sich gegenüber Baby? Viel steht auf dem Spiel. ",
        "Preis": "13,00",
        "Erscheinungsjahr": "2023",
        "Altersempfehlung": "ab 14 Jahren",
        "Reihe": "",
        "Band": "",
        "Gewicht": "",
        "Abmessungen": "13,5",
        "Sprachen": "Deutsch",
        "Kategorien": "",
        "Themen": "Akzeptanz, Filme, Freundschaft, Halluzinationen, Identität, Liebe, Neuanfang, Psyche, Psychische Gesundheit, Selbstliebe",
        "Einband": "kartoniert/broschiert",
        "Seitenzahl": "432",
        "Antolin": "",
        "AutorIn": "Lisabeth Posthuma",
        "Vorlage": "",
        "IllustratorIn": "",
        "ZeichnerIn": "",
        "PhotographIn": "",
        "ÜbersetzerIn": "Sophie Zeitz",
        "HerausgeberIn": "",
        "MitarbeiterIn": ""
    },
    {
        "ISBN": "978-3-423-74088-3",
        "Titel": "Equilon",
        "Untertitel": "Atemberaubende Near Future Fiction mitreißend authentisch erzählt",
        "Verlag": "DTV",
        "Inhaltsbeschreibung": "Was, wenn das System entscheidet, ob dein Leben zählt?Jenna hat es geschafft: Sie hat den Score für die »Eine Milliarde« geknackt und darf als eine von wenigen Privilegierten nach New Valley. Hier wurde EQUILON entwickelt, der Algorithmus, mit dem der von Armut und Klimawandel erschütterte Planet wieder bewohnbar gemacht werden soll. Als Rebellen eine Veranstaltung sprengen, erahnt sie erstmals die Schattenseite dieser glanzvollen Welt.Dorian aus Old LA hat es satt, denn sein Überleben ist abhängig vom Score der »Eine Milliarde« - und der fällt bei jeder Evaluation. Da trifft er auf die kleine Maggie, deren Mutter im Sterben liegt und ihm nicht nur Maggies Schicksal anvertraut, sondern auch etwas ungleich Wertvolleres: den Schlüssel für die »Eine Milliarde«. ",
        "Preis": "16,00",
        "Erscheinungsjahr": "2023",
        "Altersempfehlung": "ab 14 Jahren",
        "Reihe": "",
        "Band": "",
        "Gewicht": "473",
        "Abmessungen": "13,5x21,1",
        "Sprachen": "Deutsch",
        "Kategorien": "",
        "Themen": "Dystopie, Silicon Valley, Tierquälerei",
        "Einband": "kartoniert/broschiert",
        "Seitenzahl": "400",
        "Antolin": "ab 9. Klasse",
        "AutorIn": "Sarah Raich",
        "Vorlage": "",
        "IllustratorIn": "",
        "ZeichnerIn": "",
        "PhotographIn": "",
        "ÜbersetzerIn": "",
        "HerausgeberIn": "",
        "MitarbeiterIn": ""
    },
    {
        "ISBN": "978-3-522-20291-6",
        "Titel": "Almost True Crime 1: Wer nicht liebt, muss sterben",
        "Untertitel": "Inspiriert von einem wahren Verbrechen",
        "Verlag": "Thienemann in der Thienemann-Esslinger Verlag GmbH",
        "Inhaltsbeschreibung": "Warum morden Jugendliche? True Crime, endlich auch für Jugendliche! Ein Jugendroman, inspiriert von einem wahren Verbrechen: Als Maja, still und am liebsten unsichtbar, auf Jessie, laut und unerschrocken, trifft, ist nichts mehr wie zuvor. Denn Jessie hat Majas Zeichentalent erkannt und verschafft der 16-Jährigen Anerkennung in ihrer Sprayercrew. Nach einer Nacht- und Nebelaktion küssen sich die beiden und sind von nun an unzertrennlich. Und doch wird die Liebe in einer Katastrophe enden ... Ein mörderischer Stoff, kriminell gut geschriebenInspiriert von einem echten Fall: True Crime auf höchstem NiveauSpannung mit psychologischem TiefgangFür Jugendliche und alle, die sich für jugendliche Straftäter_innen interessieren ",
        "Preis": "15,00",
        "Erscheinungsjahr": "2023",
        "Altersempfehlung": "ab 14 Jahren",
        "Reihe": "Almost True Crime",
        "Band": "1",
        "Gewicht": "296",
        "Abmessungen": "13,6x20,6",
        "Sprachen": "Deutsch",
        "Kategorien": "",
        "Themen": "Drama, Graffiti, Hass, Liebe, Mobbing, Mord, Straftat, Thriller, Tod",
        "Einband": "kartoniert/broschiert",
        "Seitenzahl": "240",
        "Antolin": "",
        "AutorIn": "Ruth Stiller",
        "Vorlage": "",
        "IllustratorIn": "",
        "ZeichnerIn": "",
        "PhotographIn": "",
        "ÜbersetzerIn": "",
        "HerausgeberIn": "",
        "MitarbeiterIn": "Suse Kopp"
    },
    {
        "ISBN": "978-3-522-20282-4",
        "Titel": "Ari und Dante 2: Aristoteles und Dante springen in den Strudel des Lebens",
        "Untertitel": "Queere Liebesgeschichte",
        "Verlag": "Thienemann in der Thienemann-Esslinger Verlag GmbH",
        "Inhaltsbeschreibung": "Eine Liebesgeschichte, die einer emotionalen Achterbahnfahrt gleicht, die lang ersehnte Fortsetzung von \"Aristoteles und Dante entdecken die Geheimnisse des Universums\" ist endlich da! Ab 14 Jahren. Ari und Dante haben zueinander gefunden und ihre Gefühle füreinander sind stärker denn je. Nun beginnt das letzte Schuljahr, doch nicht nur der Abschluss und ihre Zukunftspläne beschäftigen die beiden. Im Mittelpunkt ihrer Gedanken steht ihre Beziehung: Hat ihre Liebe eine Zukunft? Die Jungs sind fest entschlossen, sich gemeinsam einen Weg in dieser Welt zu bahnen, die sie nicht zu verstehen scheint. Aber als Ari mit einem schockierenden Verlust konfrontiert wird, gerät er ins Strudeln ...Eine der schönsten Liebesgeschichten für Jugendliche geht weiter! ",
        "Preis": "22,00",
        "Erscheinungsjahr": "2023",
        "Altersempfehlung": "ab 14 Jahren",
        "Reihe": "Ari und Dante",
        "Band": "2",
        "Gewicht": "644",
        "Abmessungen": "14,4x22,2",
        "Sprachen": "Deutsch",
        "Kategorien": "",
        "Themen": "Familie, Gay Romance, Homosexualität, Identität, Selbstfindung, Teenager",
        "Einband": "gebunden",
        "Seitenzahl": "544",
        "Antolin": "",
        "AutorIn": "Benjamin Alire Sáenz",
        "Vorlage": "",
        "IllustratorIn": "",
        "ZeichnerIn": "",
        "PhotographIn": "",
        "ÜbersetzerIn": "Brigitte Jakobeit",
        "HerausgeberIn": "",
        "MitarbeiterIn": "formlabor"
    }
]