[
    {
        "ISBN": "978-3-446-26640-7",
        "Sortierung": "Knödler, Benjamin",
        "Titel": "Young Rebels",
        "Untertitel": "25 Jugendliche, die die Welt verändern!",
        "Verlag": "Hanser",
        "Inhaltsbeschreibung": "Umwelt, Demokratie, Bildung - 25 Porträts von engagierten Young Rebels aus aller Welt ermutigen, selbst aktiv zu werden.Sie kämpfen für die Umwelt, Minderheiten und Gleichberechtigung und engagieren sich gegen die Waffenlobby, Diskriminierung und Korruption. 25 Jugendliche im Kampf für eine bessere Welt. Greta Thunberg ist 16, als sie mit ihrem Schulstreik für die Umwelt weltweite Klimaproteste auslöst. Der 14-jährige Netiwit Chotiphatphaisal gründet eine Zeitung, um sich in Thailand für Demokratie, Redefreiheit und eine Bildungsreform einzusetzen. Malala Yousafzai bloggt von der Unterdrückung der Frauen in Pakistan als sie 11 ist. Und Felix Finkbeiner entwickelt in der 4. Klasse seine Idee, dass Kinder in jedem Land eine Million Bäume pflanzen sollten. Jugendliche auf der ganzen Welt zeigen soziales Engagement und bewirken wegweisende Veränderungen. Ihre Entschlossenheit inspiriert uns alle. ",
        "Preis": "18,00",
        "Erscheinungsjahr": "2020",
        "Altersempfehlung": "ab 10 Jahren",
        "AutorIn": "Benjamin Knödler; Christine Knödler",
        "IllustratorIn": "Felicitas Horstschäfer",
        "ZeichnerIn": "",
        "PhotographIn": "",
        "ÜbersetzerIn": "",
        "HerausgeberIn": "",
        "MitarbeiterIn": "",
        "Kategorien": "Sachbuch, Bilderbuch",
        "Themen": "Globalisierung, Sachbilderbuch, Umweltschutz",
        "Reihe": "",
        "Band": "",
        "Einband": "gebunden",
        "Seitenzahl": "160",
        "Abmessungen": "17,7cm x 24,5cm",
        "Antolin": "ab 7. Klasse"
    },
    {
        "ISBN": "978-3-446-26607-0",
        "Sortierung": "Baron, Adam",
        "Titel": "Freischwimmen",
        "Untertitel": "",
        "Verlag": "Hanser",
        "Inhaltsbeschreibung": "Originell, lustig und tiefgründig schreibt Adam Baron über ein Familiengeheimnis, wahre Freunde und die Überwindung von Angst - für Fans von \"Wunder\"Eine herzzerreißende, urkomische Geschichte über die Dinge, die man selbst erfahren muss, weil einem Erwachsene mal wieder nichts sagen. Cym ist noch nie geschwommen - kein einziges Mal. Kein Wunder, dass ihn die Aussicht auf den ersten Schwimmunterricht in der Schule nervös macht. Andererseits - wie schwer kann das schon sein? Cym trägt schließlich die Badeshorts seines Vaters. Leichtherzig lässt er sich zu einem Wettkampf gegen seinen Widersacher hinreißen. Dass Cym dabei fast ertrinkt, hätte niemand erwartet. Dass der Unfall eine Familienkrise auslöst, erst recht nicht. Cym muss einer Wahrheit auf die Spur kommen, die sein Leben völlig auf den Kopf stellt. Doch das Beste ist, dass er dadurch echte Freunde gewinnt. ",
        "Preis": "15,00",
        "Erscheinungsjahr": "2020",
        "Altersempfehlung": "ab 10 Jahren",
        "AutorIn": "Adam Baron",
        "IllustratorIn": "Benji Davies",
        "ZeichnerIn": "",
        "PhotographIn": "",
        "ÜbersetzerIn": "Birgitt Kollmann",
        "HerausgeberIn": "",
        "MitarbeiterIn": "",
        "Kategorien": "",
        "Themen": "Familienroman / Familienerzählung, Freundschaft, Schwimmen",
        "Reihe": "",
        "Band": "",
        "Einband": "gebunden",
        "Seitenzahl": "224",
        "Abmessungen": "14,5cm x 21,7cm",
        "Antolin": "ab 7. Klasse"
    },
    {
        "ISBN": "978-3-96177-050-2",
        "Sortierung": "Kaurin, Marianne",
        "Titel": "Irgendwo ist immer Süden",
        "Untertitel": "",
        "Verlag": "Woow Books",
        "Inhaltsbeschreibung": "Am letzten Schultag soll jeder aus der Klasse von seinen Plänen für die Sommerferien erzählen. Alle verreisen. Ins Ausland. Inas Mitschüler sind geradezu versessen aufs Ausland - es gibt sogar einen Wettstreit, wer schon in den meisten Ländern war. Als Ina an der Reihe ist, pocht es in ihrem Bauch, fast ganz oben beim Herzen. Und dann hört sie sich vor der Klasse sagen, sie würde in den Süden fahren. Nur, um dazuzugehören, dabei hat ihre Mutter für einen Urlaub gar kein Geld. Jetzt gibt es kein Zurück mehr: Damit die Lüge nicht auffliegt, bleibt Ina ab dem ersten Ferientag von morgens bis abends in ihrem Zimmer. Bis der Neue aus ihrer Klasse, der in derselben Siedlung wohnt, Ina am Fenster entdeckt und ihr einen verrückten Vorschlag macht ... ",
        "Preis": "15,00",
        "Erscheinungsjahr": "2020",
        "Altersempfehlung": "ab 11 Jahren",
        "AutorIn": "Marianne Kaurin",
        "IllustratorIn": "",
        "ZeichnerIn": "",
        "PhotographIn": "",
        "ÜbersetzerIn": "",
        "HerausgeberIn": "",
        "MitarbeiterIn": "",
        "Kategorien": "",
        "Themen": "Außenseiter, Ferien, Freundschaft, Selbstfindung",
        "Reihe": "",
        "Band": "",
        "Einband": "gebunden",
        "Seitenzahl": "240",
        "Abmessungen": "14,6cm x 22cm",
        "Antolin": "ab 9. Klasse"
    },
    {
        "ISBN": "978-3-423-64064-0",
        "Sortierung": "Kelly, Erin Entrada",
        "Titel": "Charlotte & Ben",
        "Untertitel": "Ein Freund kann alles verändern",
        "Verlag": "DTV",
        "Inhaltsbeschreibung": "Ein Freund ist der größte Schatz, den's gibt§§Zwei Freunde, 2.000 km Entfernung und der Wunsch, man selbst zu sein. ",
        "Preis": "14,95",
        "Erscheinungsjahr": "2020",
        "Altersempfehlung": "ab 11 Jahren",
        "AutorIn": "Erin Entrada Kelly",
        "IllustratorIn": "",
        "ZeichnerIn": "",
        "PhotographIn": "",
        "ÜbersetzerIn": "Birgitt Kollmann",
        "HerausgeberIn": "",
        "MitarbeiterIn": "",
        "Kategorien": "",
        "Themen": "Anderssein, Freundschaft",
        "Reihe": "Reihe Hanser",
        "Band": "",
        "Einband": "gebunden",
        "Seitenzahl": "224",
        "Abmessungen": "14,6cm x 21,8cm",
        "Antolin": "6. Klasse"
    },
    {
        "ISBN": "978-3-7891-1516-5",
        "Sortierung": "Carter, Aimée",
        "Titel": "Der Fluch des Phönix",
        "Untertitel": "Spannendes Kinderbuch ab 10 Jahren von der Autorin der Bestseller-Reihe Animox",
        "Verlag": "Oetinger",
        "Inhaltsbeschreibung": "Bist du bereit für die Reise deines Lebens?Nach dem plötzlichen Tod ihrer Mutter werden die zwölfjährigen Zwillinge Zac und Lu zu ihren Großeltern nach England geschickt. Dort entdecken sie hinter einem Torbogen eine Welt voller Fabelwesen. Was sie nicht wissen: Wer diesen Fabelzoo betritt, wird mit dem Fluch des Phönix belegt: Er muss für immer hinter den Toren der Fabelwelt bleiben. Nur wenn der Verfluchte bereit ist, alles für den Phönix zu riskieren, kann er in sein normales Leben zurückkehren. ",
        "Preis": "15,00",
        "Erscheinungsjahr": "2020",
        "Altersempfehlung": "ab 10 Jahren",
        "AutorIn": "Aimée Carter",
        "IllustratorIn": "Frauke Schneider",
        "ZeichnerIn": "",
        "PhotographIn": "",
        "ÜbersetzerIn": "Maren Illinger",
        "HerausgeberIn": "",
        "MitarbeiterIn": "",
        "Kategorien": "",
        "Themen": "Fabelwesen",
        "Reihe": "",
        "Band": "",
        "Einband": "gebunden",
        "Seitenzahl": "352",
        "Abmessungen": "15cm x 21,5cm",
        "Antolin": "5. Klasse"
    },
    {
        "ISBN": "978-3-7891-1348-2",
        "Sortierung": "Wald, Julie",
        "Titel": "Silverhorse 1. Tanz mit dem Wind",
        "Untertitel": "",
        "Verlag": "Oetinger",
        "Inhaltsbeschreibung": "Kann ein blindes Pferd meinen Blick verändern?Seit sie ihr Reitpony hergeben musste, will die 12-jährige Ava nichts mehr von Pferden wissen. Zu sehr schmerzt sie die Trennung. Doch dann lernt sie die blinde Lusitano-Stute Soraya kennen. Und zu ihrer großen Überraschung vertraut Soraya nur Ava. Mithilfe von Sorayas Besitzern, dem alten Silvester und seiner Enkelin Elsie, baut Ava ihre Bindungsängste ab und beginnt Soraya in ihr Herz zu schließen. Der Grundstein für eine lebenslange Pferdefreundschaft ist gelegt. ",
        "Preis": "15,00",
        "Erscheinungsjahr": "2020",
        "Altersempfehlung": "ab 11 Jahren",
        "AutorIn": "Julie Wald",
        "IllustratorIn": "",
        "ZeichnerIn": "",
        "PhotographIn": "",
        "ÜbersetzerIn": "",
        "HerausgeberIn": "",
        "MitarbeiterIn": "",
        "Kategorien": "",
        "Themen": "Blinde, Pferde",
        "Reihe": "Silverhorse",
        "Band": "1",
        "Einband": "gebunden",
        "Seitenzahl": "288",
        "Abmessungen": "14,6cm x 21,6cm",
        "Antolin": "6. Klasse"
    },
    {
        "ISBN": "978-3-423-76290-8",
        "Sortierung": "Blake, Ashley Herring",
        "Titel": "Mein neues Herz lernt, wie man l(i)ebt",
        "Untertitel": "Roman",
        "Verlag": "DTV",
        "Inhaltsbeschreibung": "Neues Herz, neue Sunny, neues Leben ...§§Ein junges Mädchen hat nach ihrer überstandenen Herztransplantation 3 Vorsätze - doch können diese tatsächlich umgesetzt werden? ",
        "Preis": "14,95",
        "Erscheinungsjahr": "2020",
        "Altersempfehlung": "ab 11 Jahren",
        "AutorIn": "Ashley Herring Blake",
        "IllustratorIn": "",
        "ZeichnerIn": "",
        "PhotographIn": "",
        "ÜbersetzerIn": "Bernadette Ott",
        "HerausgeberIn": "",
        "MitarbeiterIn": "",
        "Kategorien": "",
        "Themen": "Erwachsenwerden, Herztransplantation, Liebe",
        "Reihe": "",
        "Band": "",
        "Einband": "gebunden",
        "Seitenzahl": "352",
        "Abmessungen": "15,4cm x 21,4cm",
        "Antolin": "6. Klasse"
    },
    {
        "ISBN": "978-3-407-75550-6",
        "Sortierung": "Foxlee, Karen",
        "Titel": "Alles, was wir träumten",
        "Untertitel": "Roman",
        "Verlag": "Beltz",
        "Inhaltsbeschreibung": "B wie Blattkäfer, G wie Giganten, K wie Kanada ",
        "Preis": "16,95",
        "Erscheinungsjahr": "2020",
        "Altersempfehlung": "ab 11 Jahren",
        "AutorIn": "Karen Foxlee",
        "IllustratorIn": "",
        "ZeichnerIn": "",
        "PhotographIn": "",
        "ÜbersetzerIn": "Annette von der Weppen",
        "HerausgeberIn": "",
        "MitarbeiterIn": "",
        "Kategorien": "",
        "Themen": "Familienroman / Familienerzählung, Krankheit, Sick Lit, Trauer",
        "Reihe": "",
        "Band": "",
        "Einband": "gebunden",
        "Seitenzahl": "352",
        "Abmessungen": "13,7cm x 21,3cm",
        "Antolin": "6. Klasse"
    },
    {
        "ISBN": "978-3-407-74995-6",
        "Sortierung": "Patrick, S. A.",
        "Titel": "Die Dunkelheit der Drachen",
        "Untertitel": "",
        "Verlag": "Beltz",
        "Inhaltsbeschreibung": "\"Eine schwarze Wolke blendete jegliches Licht aus. Drachen waren im Anflug.\" ",
        "Preis": "16,95",
        "Erscheinungsjahr": "2020",
        "Altersempfehlung": "ab 10 Jahren",
        "AutorIn": "S. A. Patrick",
        "IllustratorIn": "",
        "ZeichnerIn": "",
        "PhotographIn": "",
        "ÜbersetzerIn": "Anne Emmert",
        "HerausgeberIn": "",
        "MitarbeiterIn": "",
        "Kategorien": "",
        "Themen": "Abenteuer, Drachen (Fabelwesen), Fantasy, Magie, Ratten",
        "Reihe": "",
        "Band": "",
        "Einband": "gebunden",
        "Seitenzahl": "368",
        "Abmessungen": "14,3cm x 21cm",
        "Antolin": "6. Klasse"
    },
    {
        "ISBN": "978-3-7915-0156-7",
        "Sortierung": "Lackey, Lindsay",
        "Titel": "Das Mädchen, das den Sturm ruft",
        "Untertitel": "",
        "Verlag": "Dressler Verlag GmbH",
        "Inhaltsbeschreibung": "Was heute unmöglich scheint, kann morgen schon wahr sein.Reds Gefühle fangen den Wind ein. Ist sie wütend, zieht Sturm auf. Das ist der Grund, warum sie nie lange in einer ihrer Pflegefamilien bleiben darf, wo sie untergebracht ist, bis ihre Mutter aus dem Gefängnis kommt. Erst bei Celine und Jackson, die einen Streichelzoo betreiben und schon so manchen Streuner aufgenommen haben, fühlt Red sich zum ersten Mal zu Hause. Zwischen kletternden Ziegen, einer bücherliebenden Riesenschildkröte und jeder Menge Hunden fasst sie endlich Fuß. Doch dann taucht Reds Mutter auf, und mit ihr kommt auch der Sturm zurück. Diese Geschichte ist mitreißend und zugleich sensibel erzählt, eine literarische Perle mit ergreifendem sozialpolitischem Hintergrund. ",
        "Preis": "18,00",
        "Erscheinungsjahr": "2020",
        "Altersempfehlung": "ab 10 Jahren",
        "AutorIn": "Lindsay Lackey",
        "IllustratorIn": "Annabelle von Sperber",
        "ZeichnerIn": "",
        "PhotographIn": "",
        "ÜbersetzerIn": "Susanne Klein",
        "HerausgeberIn": "",
        "MitarbeiterIn": "",
        "Kategorien": "",
        "Themen": "Fantasy, Freundschaft, Magie, Tiere",
        "Reihe": "",
        "Band": "",
        "Einband": "gebunden",
        "Seitenzahl": "384",
        "Abmessungen": "15,1cm x 21,6cm",
        "Antolin": "5. Klasse"
    },
    {
        "ISBN": "978-3-8415-0646-7",
        "Sortierung": "Boie, Kirsten",
        "Titel": "Thabo. Detektiv & Gentleman 3. Der Rinder-Dieb",
        "Untertitel": "",
        "Verlag": "Oetinger Taschenbuch",
        "Inhaltsbeschreibung": "Der Kalle Blomquist von SwasilandUnweit von Lion Lodge brennt ein Dorf nieder. PC Joyful wird, natürlich zu Unrecht, beschuldigt, eine Rinderherde gestohlen zu haben. Und dann verschwindet auch noch Miss Agatha! In diesem kniffligen Showdown bekommen es Meisterdetektiv Thabo und seine Freunde mit der skrupellosen Rinder-Mafia zu tun. Mit Charme, Witz und Spürsinn lösen die Freunde aber auch den dritten spannenden Fall. ",
        "Preis": "8,00",
        "Erscheinungsjahr": "2020",
        "Altersempfehlung": "ab 10 Jahren",
        "AutorIn": "Kirsten Boie",
        "IllustratorIn": "Maja Bohn",
        "ZeichnerIn": "",
        "PhotographIn": "",
        "ÜbersetzerIn": "",
        "HerausgeberIn": "",
        "MitarbeiterIn": "",
        "Kategorien": "",
        "Themen": "Abenteuer, Afrika, Krimis/Thriller",
        "Reihe": "Thabo, Detektiv & Gentleman",
        "Band": "3",
        "Einband": "kartoniert",
        "Seitenzahl": "320",
        "Abmessungen": "14,6cm x 19,8cm",
        "Antolin": ""
    },
    {
        "ISBN": "978-3-7348-4056-2",
        "Sortierung": "Fasshauer, Ulrich",
        "Titel": "Robin vom See - Das Sturmtief über Schikagow",
        "Untertitel": "",
        "Verlag": "Magellan",
        "Inhaltsbeschreibung": "Robins Vater hat über das Internet eine neue Frau kennengelernt. Lara selbst ist nicht das Problem - das Problem ist ihre siebenjährige Tochter Aurora, denn dieses \"Sturmtief\" wirbelt Robins Leben gehörig durcheinander. Da kann nur die Bande zur Rettung der Gerechtigkeit helfen! Gemeinsam schmieden sie einen Plan, wie sie Aurora garantiert wieder loswerden ... Doch als Aurora in Gefahr gerät, muss sich Robin die Frage stellen: Will er das tatsächlich?Der 3. Band der spannenden Abenteuerreihe ",
        "Preis": "13,00",
        "Erscheinungsjahr": "2020",
        "Altersempfehlung": "ab 9 Jahren",
        "AutorIn": "Ulrich Fasshauer",
        "IllustratorIn": "Alexander von Knorre",
        "ZeichnerIn": "",
        "PhotographIn": "",
        "ÜbersetzerIn": "",
        "HerausgeberIn": "",
        "MitarbeiterIn": "",
        "Kategorien": "",
        "Themen": "Abenteuer, Mecklenburgische Seenplatte, Patchworkfamilie / Stieffamilie / Zweitfamilie",
        "Reihe": "Robin vom See",
        "Band": "3",
        "Einband": "gebunden",
        "Seitenzahl": "160",
        "Abmessungen": "15,6cm x 21,6cm",
        "Antolin": "4. Klasse"
    },
    {
        "ISBN": "978-3-7348-4722-6",
        "Sortierung": "Rahlff, Ruth",
        "Titel": "Eulennacht - In den Bäumen von Redmoor",
        "Untertitel": "",
        "Verlag": "Magellan",
        "Inhaltsbeschreibung": "Ruby kann es nicht fassen: Ausgerechnet in Redmoor Garden wird sie die Sommerferien verbringen! Die Schönheit des geheimnisvollen Gartens zieht sie sofort in ihren Bann, besonders, da sie immer wieder fasziniert Eulen beobachtet, die in dem uralten Baumbestand leben. Doch Redmoor ist weit mehr als nur das romantische Paradies aus ihrer Vorstellung. Die jahrelang verwilderten Gartenteile werden ihr zunehmend unheimlich und wenig später kommt es zu unerklärlichen Angriffen der Eulen. Schnell werden Stimmen laut, die Maßnahmen gegen die Wildvögel verlangen. Es beginnt ein Wettlauf gegen die Zeit. Kann Ruby das Rätsel um die Eulen lösen? ",
        "Preis": "16,00",
        "Erscheinungsjahr": "2020",
        "Altersempfehlung": "ab 11 Jahren",
        "AutorIn": "Ruth Rahlff",
        "IllustratorIn": "",
        "ZeichnerIn": "",
        "PhotographIn": "",
        "ÜbersetzerIn": "",
        "HerausgeberIn": "",
        "MitarbeiterIn": "",
        "Kategorien": "",
        "Themen": "Eulen, Garten, Geheimnis, Natur",
        "Reihe": "",
        "Band": "",
        "Einband": "gebunden",
        "Seitenzahl": "320",
        "Abmessungen": "15,8cm x 21,6cm",
        "Antolin": "ab 7. Klasse"
    },
    {
        "ISBN": "978-3-423-64066-4",
        "Sortierung": "Mazetti, Katarina",
        "Titel": "Abenteuer mit den Karlsson-Kindern",
        "Untertitel": "Drei Geschichten in einem Band",
        "Verlag": "DTV",
        "Inhaltsbeschreibung": "Über 80.000 verkaufte Exemplare der 'Karlsson-Kinder'§§Drei spannende Abenteuer der Karlsson-Kinder in einem Band. ",
        "Preis": "15,00",
        "Erscheinungsjahr": "2020",
        "Altersempfehlung": "ab 9 Jahren",
        "AutorIn": "Katarina Mazetti",
        "IllustratorIn": "",
        "ZeichnerIn": "",
        "PhotographIn": "",
        "ÜbersetzerIn": "Anu Stohner",
        "HerausgeberIn": "",
        "MitarbeiterIn": "",
        "Kategorien": "Vorlesebuch",
        "Themen": "Abenteuer, Ferien",
        "Reihe": "Karlsson-Kinder-Reihe",
        "Band": "",
        "Einband": "gebunden",
        "Seitenzahl": "576",
        "Abmessungen": "14,6cm x 21,8cm",
        "Antolin": "5. Klasse"
    },
    {
        "ISBN": "978-3-423-62721-4",
        "Sortierung": "Essig, Rolf-Bernhard",
        "Titel": "Da haben wir den Salat",
        "Untertitel": "In 80 Sprichwörtern um die Welt",
        "Verlag": "DTV",
        "Inhaltsbeschreibung": "In 80 Sprichwörtern um die Welt§§Sprichwörter aus aller Welt: blumig, originell und wunderbar erklärt. ",
        "Preis": "9,95",
        "Erscheinungsjahr": "2020",
        "Altersempfehlung": "ab 11 Jahren",
        "AutorIn": "Rolf-Bernhard Essig",
        "IllustratorIn": "Regina Kehn",
        "ZeichnerIn": "",
        "PhotographIn": "",
        "ÜbersetzerIn": "",
        "HerausgeberIn": "",
        "MitarbeiterIn": "",
        "Kategorien": "",
        "Themen": "Redensarten / Redewendungen, Sprichwörter",
        "Reihe": "dtv Taschenbücher",
        "Band": "62721",
        "Einband": "kartoniert",
        "Seitenzahl": "176",
        "Abmessungen": "13,4cm x 21cm",
        "Antolin": "4. Klasse"
    },
    {
        "ISBN": "978-3-423-62723-8",
        "Sortierung": "Goldberg Sloan, Holly",
        "Titel": "Short",
        "Untertitel": "Manchmal wächst man über sich hinaus. Roman",
        "Verlag": "DTV",
        "Inhaltsbeschreibung": "Auch wenn sie klein ist, Julia ist jeder Aufgabe gewachsen!§§Ein junges Mädchen wächst über sich hinaus und findet ihre Liebe zur Theaterwelt. ",
        "Preis": "8,95",
        "Erscheinungsjahr": "2020",
        "Altersempfehlung": "ab 10 Jahren",
        "AutorIn": "Holly Goldberg Sloan",
        "IllustratorIn": "",
        "ZeichnerIn": "",
        "PhotographIn": "",
        "ÜbersetzerIn": "Katharina von Savigny",
        "HerausgeberIn": "",
        "MitarbeiterIn": "",
        "Kategorien": "",
        "Themen": "Kleinwüchsige, Mädchen, Theater",
        "Reihe": "dtv Taschenbücher",
        "Band": "62723",
        "Einband": "kartoniert",
        "Seitenzahl": "336",
        "Abmessungen": "12,2cm x 19,1cm",
        "Antolin": "ab 7. Klasse"
    },
    {
        "ISBN": "978-3-423-62727-6",
        "Sortierung": "Richter, Jutta",
        "Titel": "Frau Wolle und der Duft von Schokolade",
        "Untertitel": "",
        "Verlag": "DTV",
        "Inhaltsbeschreibung": "»Mit 'Frau Wolle' hat Jutta Richter sich selbst übertroffen.« Hilde Elisabeth Menzel in 'Süddeutsche Zeitung'§§Und plötzlich verbirgt sich hinter der Kinderzimmertür eine unvorstellbar zauberhafte und schaurig-aufregende Welt. ",
        "Preis": "9,95",
        "Erscheinungsjahr": "2020",
        "Altersempfehlung": "ab 9 Jahren",
        "AutorIn": "Jutta Richter",
        "IllustratorIn": "Günter Mattei",
        "ZeichnerIn": "",
        "PhotographIn": "",
        "ÜbersetzerIn": "",
        "HerausgeberIn": "",
        "MitarbeiterIn": "",
        "Kategorien": "",
        "Themen": "Abenteuer, Fantasy",
        "Reihe": "dtv Taschenbücher",
        "Band": "62727",
        "Einband": "kartoniert",
        "Seitenzahl": "144",
        "Abmessungen": "13,6cm x 21cm",
        "Antolin": "4. Klasse"
    },
    {
        "ISBN": "978-3-423-76287-8",
        "Sortierung": "DiCamillo, Kate",
        "Titel": "Little Miss Florida - Louisianas Weg nach Hause",
        "Untertitel": "Roman",
        "Verlag": "DTV",
        "Inhaltsbeschreibung": "Der neue große Kinderroman von Kate DiCamillo§§Louisiana Elefante muss bei einer Nacht-und-Nebel-Aktion ihr Zuhause verlassen. Doch was hat ihre Granny damit zu tun? ",
        "Preis": "12,95",
        "Erscheinungsjahr": "2020",
        "Altersempfehlung": "ab 9 Jahren",
        "AutorIn": "Kate DiCamillo",
        "IllustratorIn": "",
        "ZeichnerIn": "",
        "PhotographIn": "",
        "ÜbersetzerIn": "Sabine Ludwig",
        "HerausgeberIn": "",
        "MitarbeiterIn": "",
        "Kategorien": "",
        "Themen": "Florida, Freundschaft, Identität, Schicksal",
        "Reihe": "dtv Junior",
        "Band": "2",
        "Einband": "gebunden",
        "Seitenzahl": "208",
        "Abmessungen": "15,6cm x 21,6cm",
        "Antolin": "5. Klasse"
    },
    {
        "ISBN": "978-3-95470-235-0",
        "Sortierung": "Lemire, Sabine",
        "Titel": "Mira #kuss #kunst #familie",
        "Untertitel": "Mira - Band 3",
        "Verlag": "Klett Kinderbuch Verlag",
        "Inhaltsbeschreibung": "Mira ist die beste Begleiterin durch die aufwühlende Zeit des Zwischendrin-Alters ",
        "Preis": "15,00",
        "Erscheinungsjahr": "2020",
        "Altersempfehlung": "ab 10 Jahren",
        "AutorIn": "Sabine Lemire",
        "IllustratorIn": "Rasmus Bregnhoi",
        "ZeichnerIn": "",
        "PhotographIn": "",
        "ÜbersetzerIn": "Franziska Gehm",
        "HerausgeberIn": "",
        "MitarbeiterIn": "",
        "Kategorien": "",
        "Themen": "Freundschaft, Patchworkfamilie / Stieffamilie / Zweitfamilie, Pubertät",
        "Reihe": "Mira",
        "Band": "3",
        "Einband": "gebunden",
        "Seitenzahl": "104",
        "Abmessungen": "17,7cm x 24,5cm",
        "Antolin": "4. Klasse"
    }
]